<?xml version="1.0" encoding="UTF-8" standalone="no"?>
<svg xmlns="http://www.w3.org/2000/svg" width="1000" height="1000" viewBox="0 0 264.58333 264.58334" version="1.1">
	<radialGradient id="Gradient" cx="0.5" cy="0.5" r="0.85" fx="0.35" fy="0.55">
		<stop offset="0%" stop-color="#77BB77" />
		<stop offset="25%" stop-color="#339933" />
		<stop offset="100%" stop-color="#003300" />
	</radialGradient>
	<style type="text/css">
		.primary { fill: url(#Gradient); }
	</style>
	<g class="primary">
		<path transform="scale(0.26458333)"
			d="m 551.65224,978.8596 -181.41258,-19.69514 -2.44922,-2.75421 c -1.34708,-1.51486 -25.97703,-28.42205 -54.73324,-59.79376 -38.68624,-42.20489 -52.74056,-57.03361 -54.03943,-57.01696 -0.96547,0.0124 -59.30234,11.11258 -129.63747,24.6671 C 59.045166,877.82116 1.4266115,888.85296 1.339067,888.78175 1.2515224,888.71054 16.869792,819.17185 36.046333,734.25124 L 70.912771,579.85019 35.93545,519.9204 0.95812798,459.9906 40.897224,360.1208 80.836318,260.251 85.767735,160.78717 c 2.712285,-54.7051 4.985938,-99.553691 5.052575,-99.663534 0.06666,-0.109842 39.53721,4.183341 87.71238,9.540407 48.17518,5.357068 88.88577,9.730906 90.46799,9.719644 1.58223,-0.01126 62.98134,-17.850973 136.44248,-39.643798 C 492.32037,14.96708 539.18853,1.4218022 539.52285,1.9897742 c 0.28269,0.4802625 9.39085,31.9827378 20.24038,70.0055008 l 19.72639,69.132295 6.14799,-2.79889 c 3.38139,-1.53938 57.11812,-26.14633 119.41495,-54.6821 62.29683,-28.535766 113.70063,-51.991697 114.23075,-52.124289 0.53004,-0.132592 32.16717,22.029264 70.30469,49.248569 l 69.3409,49.48965 -3.44177,7.34682 c -1.89298,4.04076 -37.84408,80.42229 -79.8913,169.73675 -46.94181,99.71117 -76.19665,162.76136 -75.79436,163.35227 0.36034,0.52929 34.11261,32.16906 75.00507,70.31059 l 74.34982,69.34824 24.56366,122.93341 c 13.51003,67.61338 24.73954,123.67578 24.95454,124.58313 0.35523,1.49918 -6.44525,4.38388 -74.49515,31.60075 l -74.88603,29.95096 -54.46051,39.63345 c -53.22371,38.7334 -54.54347,39.63191 -58.11427,39.56565 -2.00958,-0.0373 -85.28944,-8.93063 -185.06636,-19.76293 z M 683.59786,864.69372 c 10.33943,-1.00925 22.09744,-3.25381 29.5742,-5.64565 13.57965,-4.34425 36.73034,-17.71731 53.7709,-31.06105 26.36406,-20.64454 59.4143,-53.71486 88.22617,-88.27979 12.18103,-14.6133 15.84966,-19.42893 15.25467,-20.02394 -0.27274,-0.27272 -6.80983,2.44709 -14.52684,6.04403 -41.57068,19.37633 -74.3225,30.67629 -97.44543,33.62044 -12.74613,1.62292 -51.67602,1.36753 -66.39016,-0.43551 -32.63458,-3.999 -69.54292,-13.60756 -89.00256,-23.17053 -11.47428,-5.63875 -29.78656,-18.17112 -49.73018,-34.03382 l -1.91923,-1.52651 13.28653,-10.40947 c 55.69842,-43.63752 98.62029,-85.86968 120.49902,-118.56273 24.30441,-36.31773 39.16231,-100.48609 45.39853,-196.06732 3.08497,-47.2826 3.57202,-115.62842 1.18905,-166.85564 -0.83181,-17.88151 -1.24893,-21.77079 -2.08673,-19.45661 -0.16768,0.46319 -6.31125,11.86845 -13.65238,25.34503 -60.50005,111.06393 -117.66883,197.80269 -157.11726,238.38461 -20.61893,21.2114 -47.94283,42.11774 -92.1808,70.53031 -27.01523,17.35099 -75.46925,46.01499 -76.32975,45.15448 -0.75097,-0.75096 -9.66119,-26.9382 -14.59386,-42.89151 -12.03419,-38.92118 -18.65952,-68.53015 -20.69971,-92.50824 -1.93254,-22.71295 3.10486,-59.84927 14.21511,-104.79551 12.77732,-51.69033 38.79899,-128.3755 66.09155,-194.77004 3.19036,-7.76118 5.68552,-14.22639 5.54478,-14.36711 -0.14072,-0.14073 -7.7359,2.9522 -16.87816,6.87316 -62.03076,26.604 -111.56125,54.34234 -137.66024,77.09326 -8.16956,7.12155 -31.82824,32.14959 -45.79112,48.44149 -54.25176,63.30102 -81.22153,121.25109 -81.22153,174.52106 0,16.95558 3.55367,31.55822 12.56654,51.63809 14.03259,31.26335 44.28719,74.76133 79.88954,114.85968 3.17201,3.57258 5.77236,6.68005 5.77856,6.90549 0.006,0.22544 -4.09923,1.4644 -9.12317,2.75325 -25.47492,6.53539 -42.94391,13.93476 -54.19763,22.95659 -7.67396,6.15202 -31.31993,29.53812 -34.99243,34.60787 -9.00324,12.4286 8.18551,29.81212 46.35972,46.88502 28.87891,12.91569 66.40937,26.58867 151.4286,55.16797 54.78649,18.41652 67.27432,23.17863 104.33552,39.78731 75.80623,33.97193 89.55545,39.73304 114.59399,48.01655 22.0346,7.28968 44.04127,12.45263 61.59907,14.45157 4.24244,0.48303 8.80966,1.006 10.14937,1.16214 5.71688,0.66645 27.61389,0.4594 35.78775,-0.33842 z"
		/>
	</g>
</svg>
