<?xml version="1.0" encoding="UTF-8" standalone="no"?>
<svg xmlns="http://www.w3.org/2000/svg" width="1000" height="1000" viewBox="0 0 264.58333 264.58334" version="1.1">
	<radialGradient id="Gradient" cx="0.5" cy="0.5" r="0.85" fx="0.35" fy="0.55">
		<stop offset="0%" stop-color="#77BB77" />
		<stop offset="25%" stop-color="#339933" />
		<stop offset="100%" stop-color="#003300" />
	</radialGradient>
	<style type="text/css">
		.primary { fill: url(#Gradient); }
	</style>
	<g class="primary">
		<path transform="scale(0.26458333)"
			d="m 684.79311,984.13646 -74.80861,-14.99673 -88.57149,9.88951 c -48.71433,5.43921 -89.20213,9.89787 -89.97291,9.90815 -0.77077,0.0105 -37.82538,-23.56333 -82.34357,-52.38584 -44.51819,-28.82252 -82.77451,-53.54066 -85.01405,-54.92918 l -4.07188,-2.52459 -69.53592,24.8458 c -38.24476,13.6652 -69.79198,24.56139 -70.10492,24.21372 -0.31295,-0.34768 -18.30819,-40.58502 -39.989426,-89.41647 C 41.130287,750.3402 40.965562,749.94475 42.268737,747.24797 70.745733,688.31806 160.54134,500.67352 160.54134,500.09548 c 0,-1.03709 3.75295,-0.2174 -51.76078,-11.30515 -26.311819,-5.25526 -47.923702,-9.65869 -48.026411,-9.7854 C 60.327496,478.47855 0.95305035,200.21946 1.223174,200.01227 2.1264764,199.3194 175.36409,45.477088 177.57698,43.402648 l 2.6582,-2.491878 109.24105,24.836321 c 60.08257,13.659978 109.74558,24.836323 110.36222,24.836323 0.61664,0 52.68648,-20.174493 115.71075,-44.832207 L 630.13879,0.91900131 749.76596,35.82957 869.39314,70.740139 914.10796,200.01262 c 28.39442,82.08951 44.45525,129.70676 44.00371,130.46233 -0.39115,0.65442 -31.68798,36.56819 -69.5486,79.80841 -37.86061,43.2402 -68.95556,78.94878 -69.09988,79.35239 -0.14433,0.40361 39.98443,58.86418 89.17498,129.91238 49.19057,71.0482 89.64401,129.71689 89.89653,130.37486 0.25243,0.65797 -3.987,36.8091 -9.42098,80.33584 l -9.88001,79.13955 -106.25745,43.48212 c -58.44155,23.91518 -107.85875,44.10556 -109.81596,44.86748 -3.53369,1.37562 -4.08195,1.28038 -78.36719,-13.61152 z M 496.50376,891.36375 c -7.35823,-65.96308 -13.21661,-129.25236 -15.32494,-165.5585 -0.51487,-8.8661 -2.09852,-25.13876 -3.51924,-36.16147 -4.80114,-37.24985 -5.37986,-44.33464 -4.91113,-60.12387 0.36086,-12.15584 0.84606,-16.37625 2.70475,-23.52674 4.80649,-18.49086 13.5531,-32.24732 29.4297,-46.28634 8.44257,-7.46541 19.2939,-14.79831 45.59228,-30.8094 31.93815,-19.44473 45.83357,-30.09931 56.05368,-42.98022 11.91416,-15.01605 32.60263,-48.40002 44.11589,-71.18768 21.34196,-42.24116 30.40641,-75.29491 30.4669,-111.09846 0.0309,-18.29296 -0.93575,-22.6236 -8.39794,-37.62292 -7.05733,-14.18553 -29.79995,-46.38764 -32.79946,-46.44196 -0.7746,-0.014 -0.977,0.50452 -0.58681,1.50346 1.27273,3.25839 6.65643,26.72482 8.3792,36.52319 1.044,5.93787 1.9982,16.04177 2.24939,23.81853 0.39932,12.36306 0.25423,14.20666 -1.7145,21.78402 -7.14104,27.48488 -22.43753,55.36644 -47.97198,87.44052 -12.98016,16.30451 -40.94865,48.99431 -48.82431,57.06625 -11.11936,11.39648 -21.91861,20.11325 -48.97403,39.5301 -32.83643,23.56571 -41.54379,30.74691 -54.53962,44.98036 -18.03132,19.7485 -28.30354,44.23675 -33.50769,79.88008 -1.89086,12.95052 -2.1371,50.14797 -0.44415,67.09476 1.86919,18.71107 5.25766,42.63987 7.63125,53.89064 8.59887,40.75864 36.15102,112.30104 69.01219,179.1983 6.87005,13.98577 9.2805,18.18207 9.50991,16.55585 0.16901,-1.19812 -1.46419,-18.05895 -3.62934,-37.4685 z m 22.10423,29.65449 c 13.16211,-15.7799 24.00269,-27.63398 37.87896,-41.42039 33.69126,-33.47294 46.51906,-39.64036 103.34398,-49.68623 38.35276,-6.78025 53.8356,-11.41066 68.85229,-20.59149 19.39143,-11.85542 35.39561,-35.34589 51.25936,-75.23696 8.86871,-22.30134 21.5959,-62.45476 20.4061,-64.37989 -0.26463,-0.42819 -4.70348,7.80438 -9.8641,18.29459 -26.40609,53.67674 -50.8319,88.11045 -72.27249,101.88442 -15.33513,9.85167 -28.98387,12.5494 -72.52366,14.33464 -32.2463,1.32218 -43.35045,3.33394 -57.78389,10.46881 -17.17364,8.48944 -33.26649,27.09112 -52.0134,60.12216 -8.62042,15.18868 -26.80558,52.71801 -26.80558,55.31954 0,1.68556 2.56542,-0.76854 9.52243,-9.1092 z m 252.75925,-20.9279 c 16.2186,-2.39102 49.36928,-9.13639 58.32195,-11.86715 18.28917,-5.57854 67.35109,-29.20724 60.39876,-29.08864 -0.35943,0.006 -6.73126,0.6073 -14.15961,1.33591 -19.00714,1.86434 -63.14038,2.6502 -76.73522,1.3664 -21.03127,-1.98605 -27.40896,-4.2679 -45.69093,-16.34759 -13.68186,-9.04019 -17.56553,-11.25307 -24.627,-14.03222 -5.25209,-2.06705 -7.01821,-2.30916 -16.76263,-2.29793 -7.61854,0.009 -13.78585,0.58313 -20.52089,1.91105 -8.88886,1.7526 -31.6799,7.64065 -32.41318,8.37394 -0.48377,0.48377 5.2889,15.05795 9.25904,23.37623 4.54354,9.5196 11.23498,19.49189 16.0691,23.94785 7.28676,6.71671 24.27016,13.03782 40.24066,14.9773 9.86888,1.19855 32.78078,0.38505 46.61995,-1.65515 z M 594.90513,802.66775 c 28.81197,-16.98632 48.73753,-34.9422 54.88938,-49.46345 0.80076,-1.89016 1.66984,-6.18142 1.9313,-9.53616 0.41014,-5.26224 0.10922,-7.19111 -2.19213,-14.05155 -1.46715,-4.37362 -5.39786,-13.39221 -8.73492,-20.0413 -8.45405,-16.8447 -9.29382,-19.68121 -9.25449,-31.25919 0.0269,-7.92263 0.53269,-11.54315 2.91629,-20.87571 2.94061,-11.51345 7.78171,-25.87093 13.61404,-40.37578 1.791,-4.45417 3.0974,-8.25746 2.90311,-8.45174 -0.5301,-0.5301 -25.83735,17.726 -37.76457,27.24251 -12.52977,9.99728 -29.25401,26.58131 -33.85675,33.57289 -15.80955,24.01481 -22.96992,53.23177 -18.94183,77.28963 2.43029,14.51497 12.08005,47.53496 17.89284,61.2265 l 1.39297,3.28103 2.80518,-1.45061 c 1.54285,-0.79784 7.12266,-3.99602 12.39958,-7.10707 z M 410.62182,730.04329 c 0,-1.61959 -14.4258,-25.5018 -23.62212,-39.10692 -16.08695,-23.79918 -32.22097,-42.0294 -44.30839,-50.06509 -12.0481,-8.00957 -22.8118,-10.50125 -51.01021,-11.80832 -28.74933,-1.33261 -40.20185,-3.48084 -50.62041,-9.49518 -10.66787,-6.15828 -26.72899,-24.19797 -41.95369,-47.12199 -4.61516,-6.9491 -8.51454,-12.79811 -8.6653,-12.9978 -0.15075,-0.19968 -0.53958,-0.0976 -0.86406,0.22689 -1.43591,1.43592 11.969,45.44525 19.27752,63.28954 9.01547,22.01193 15.24242,32.24029 26.98647,44.32792 17.86038,18.38286 42.12274,33.36463 75.45741,46.59418 17.44672,6.9241 25.9752,9.45449 39.75193,11.79436 9.57594,1.6264 33.82307,4.08283 46.93612,4.75501 11.87633,0.60879 12.63473,0.58522 12.63473,-0.3926 z m 10.12981,-191.36272 c -1.99156,-6.8406 -7.80951,-49.53701 -9.30122,-68.25913 -1.26752,-15.90837 -0.20956,-23.96829 6.16643,-46.9783 7.06929,-25.51207 8.07582,-30.65973 8.09291,-41.38963 0.0245,-15.37731 -3.62584,-23.72479 -15.29609,-34.97848 -14.02135,-13.52089 -36.214,-25.20367 -68.42118,-36.01866 -17.59011,-5.90665 -41.80855,-12.41526 -42.43364,-11.40386 -0.23029,0.37262 4.79853,3.90928 11.17515,7.85925 42.87246,26.55711 73.02938,55.20537 79.0792,75.12306 1.60782,5.29342 1.80247,7.49283 1.36558,15.43074 -0.51003,9.26702 -1.15921,12.24763 -6.98967,32.09191 -6.52112,22.19499 -7.36183,34.23326 -3.24306,46.43866 2.68883,7.96803 9.50194,21.46014 16.39621,32.46975 12.42516,19.84197 25.3097,36.14193 23.40938,29.61469 z M 292.29173,379.7616 c 11.15345,-2.37892 19.08805,-7.99462 23.01026,-16.28548 4.69427,-9.92288 3.60268,-26.24738 -2.66162,-39.80376 -4.53612,-9.8165 -10.67283,-15.13821 -27.92494,-24.2163 -8.23374,-4.33261 -9.0972,-4.97967 -6.10474,-4.57486 1.917,0.25933 10.39134,0.71906 18.83188,1.02162 23.28569,0.83469 30.30684,-1.24736 40.92809,-12.13684 11.72339,-12.01946 17.39428,-28.51884 13.95445,-40.60037 -1.54208,-5.41617 -8.63731,-12.32712 -15.16219,-14.76839 -14.31032,-5.35418 -38.41988,-4.03742 -51.80476,2.82934 -7.21277,3.70032 -16.5814,12.54211 -26.24028,24.76466 -1.61534,2.04408 -3.11069,3.54278 -3.32301,3.33046 -0.21233,-0.21232 0.60836,-3.66139 1.82376,-7.66459 3.63966,-11.98817 5.06827,-19.88884 5.18626,-28.68167 0.10786,-8.03803 -0.009,-8.57732 -3.3032,-15.24881 -4.64692,-9.41094 -15.51974,-20.34734 -24.8947,-25.04031 -18.83787,-9.42995 -33.64083,-4.35043 -40.88554,14.02953 -5.13693,13.03252 -5.8936,35.19822 -1.54436,45.24022 1.29102,2.98086 2.34731,5.71432 2.34731,6.07435 0,0.36003 -2.4507,-1.73246 -5.446,-4.64999 -8.31375,-8.09789 -13.84223,-12.03182 -21.23203,-15.1082 -14.37731,-5.98529 -30.27315,-8.46101 -38.91566,-6.06096 -7.37633,2.04842 -12.62072,10.01517 -11.73949,17.83341 1.0659,9.45661 8.80479,19.87564 26.35859,35.4871 9.95162,8.85046 18.39476,13.50236 34.21307,18.85028 l 9.81497,3.31828 -11.04391,0.59041 c -19.98377,1.06832 -32.26675,4.91877 -37.74143,11.83111 -8.94944,11.29959 -12.49884,32.04118 -7.9415,46.40769 7.27862,22.94503 33.27909,29.29874 66.72315,16.30507 10.43095,-4.05263 21.11672,-10.15508 25.55647,-14.59483 4.29697,-4.29697 7.5799,-10.03442 11.94959,-20.8838 l 3.61346,-8.97176 0.55599,10.2788 c 0.8885,16.42605 4.26296,26.95828 10.25182,31.99758 9.589,8.0686 28.63664,12.11983 42.79024,9.10101 z M 610.47329,261.7324 c 12.36534,-3.18815 22.87346,-11.31239 25.32968,-19.58337 1.73044,-5.82699 1.76736,-20.48291 0.0756,-29.97861 -0.67993,-3.81627 -1.05837,-7.11655 -0.84096,-7.33395 0.2174,-0.21741 0.39528,0.0445 0.39528,0.58214 0,2.12093 14.33305,22.26123 19.50186,27.40333 6.34289,6.31011 17.25409,13.05578 26.08587,16.12717 8.72912,3.03569 17.20047,2.60982 22.54132,-1.13321 3.89393,-2.72898 8.76973,-9.86405 10.37935,-15.18876 1.76831,-5.84965 1.96388,-15.06542 0.43157,-20.33638 -2.3136,-7.95852 -7.72077,-12.85717 -19.45691,-17.62709 l -4.83646,-1.96569 6.00625,-0.5485 c 10.59057,-0.96716 16.3013,-2.9107 24.58213,-8.36605 21.74668,-14.32653 28.5942,-32.07879 17.10959,-44.35676 -7.86084,-8.40388 -19.5511,-12.39268 -36.55685,-12.47344 -8.16447,-0.0388 -11.31576,0.29686 -14.37745,1.53133 -5.5053,2.21975 -14.28659,8.13767 -20.69481,13.94671 -2.9953,2.71524 -5.446,4.71373 -5.446,4.4411 0,-0.27264 1.15757,-2.37699 2.57237,-4.67634 6.31377,-10.26119 11.08201,-25.46235 10.01652,-31.93275 -2.76433,-16.786984 -22.91632,-32.750274 -41.3438,-32.750274 -19.46889,0 -40.95394,17.856591 -40.95394,34.037524 0,4.36983 2.70595,12.16991 6.14117,17.70234 1.45166,2.33789 2.51782,4.37229 2.36923,4.52087 -0.14859,0.14859 -3.18148,-2.0502 -6.73975,-4.88619 -13.21136,-10.52964 -23.48023,-13.90604 -42.29339,-13.90604 -12.93082,0 -19.92606,2.02178 -25.18262,7.27834 -11.56767,11.56767 -5.00144,30.49349 17.11339,49.32582 8.37911,7.1354 14.59253,10.64589 22.45115,12.68451 7.49388,1.94401 20.26028,3.87052 25.77775,3.88998 2.43618,0.009 4.683,0.26922 4.99293,0.57915 0.30993,0.30994 -1.44914,1.496 -3.90905,2.63568 -6.66564,3.08825 -16.10637,9.61805 -18.24208,12.61738 -4.78432,6.71896 -6.96938,21.33047 -4.82122,32.23952 2.7232,13.82925 9.32663,22.28583 20.01088,25.6266 5.05325,1.58005 15.42669,1.52008 21.81145,-0.12609 z"
		/>
	</g>
</svg>
