<?xml version="1.0" encoding="UTF-8" standalone="no"?>
<svg xmlns="http://www.w3.org/2000/svg" width="1000" height="1000" viewBox="0 0 264.58333 264.58334" version="1.1">
	<radialGradient id="Gradient" cx="0.5" cy="0.5" r="0.85" fx="0.35" fy="0.55">
		<stop offset="0%" stop-color="#E9C069" />
		<stop offset="25%" stop-color="#B99039" />
		<stop offset="100%" stop-color="#6A4D1D" />
	</radialGradient>
	<style type="text/css">
		.primary { fill: url(#Gradient); }
	</style>
	<g class="primary">
		<path transform="scale(0.26458333)"
			d="m 788.89062,21.541016 c -0.35853,0 -60.99265,29.049658 -134.74218,64.554687 L 520.05859,150.65039 475.4707,130.78906 c -24.5237,-10.92371 -45.15933,-19.64214 -45.85547,-19.375 -0.69614,0.26713 -16.61962,11.46126 -35.38671,24.87696 L 360.10547,160.68359 250.27539,120.74414 C 189.86891,98.777365 140.34839,80.918558 140.22852,81.058594 138.44709,83.139737 61.136665,249.73711 61.505859,250.69922 c 0.284771,0.7421 27.230851,45.87104 59.878911,100.28711 l 59.35937,98.9375 -65.08398,100.1289 -65.085941,100.12696 -9.933594,99.3164 c -5.544064,55.42567 -9.564307,99.68255 -9.097656,100.14649 0.459898,0.45724 56.379708,27.52444 124.267581,60.15039 67.88787,32.62596 124.0888,59.17353 124.89062,58.99414 0.80183,-0.17938 68.19287,-29.25413 149.75781,-64.61133 81.56497,-35.3572 149.13713,-64.2852 150.16016,-64.2832 1.02304,0.002 88.89348,20.08467 195.26758,44.6289 106.3741,24.54424 193.46601,44.55339 193.53711,44.4629 0.0711,-0.0905 4.59376,-49.34738 10.05078,-109.45899 l 9.92187,-109.29492 -29.97265,-185 -29.97266,-185 -59.93359,-74.93164 c -42.19918,-52.75912 -60.08634,-75.82436 -60.44531,-77.94727 -0.28042,-1.6583 -4.78882,-39.64354 -10.01954,-84.41211 -5.23071,-44.768574 -9.80357,-81.398434 -10.16211,-81.398434 z M 649.63477,205.54492 c 0.48326,-0.15025 6.18687,9.88723 12.67578,22.30469 60.61794,116.00118 257.71266,496.09889 271.88086,524.32422 l 4.51171,8.99023 H 520.28711 c -230.12921,0 -418.41602,-0.19179 -418.41602,-0.42578 0,-0.23399 3.87993,-6.68335 8.62305,-14.33398 189.62522,-305.86413 217.75914,-350.68238 220.12305,-350.67188 0.61075,0.003 3.12691,3.17215 5.59179,7.04492 31.6893,49.78963 102.88394,158.17383 103.9004,158.17383 0.77207,0 13.54499,-21.57542 69.90624,-118.08594 l 31.2168,-53.45507 -157.7207,-0.48633 -157.72266,-0.48633 -6.59179,-3.12305 c -5.66476,-2.68322 -6.85707,-3.7079 -8.48243,-7.28906 -2.3667,-5.21458 -2.57946,-17.27471 -0.45117,-25.58789 2.02082,-7.89344 8.12816,-20.4345 14.29688,-29.35938 6.4684,-9.35843 21.66469,-24.80429 29.88086,-30.37109 16.05368,-10.87703 36.94586,-15.27139 53.02734,-11.1543 13.88236,3.55408 34.86866,16.46584 58.26953,35.84961 7.48068,6.1965 13.95974,11.14623 14.39844,11 0.43869,-0.14624 3.33087,-6.81559 6.42578,-14.82226 9.02466,-23.34729 17.82949,-39.31716 26.65234,-48.33985 10.26589,-10.49843 31.57828,-20.8815 51.66407,-25.16796 3.2073,-0.68445 11.73474,-1.24986 18.95117,-1.25586 19.0389,-0.0166 27.65308,2.90167 38.22851,12.94726 10.45532,9.93151 21.75086,26.26764 31.83399,46.04297 3.20257,6.28096 6.05376,11.41992 6.33789,11.41992 0.28412,0 4.53233,-2.78964 9.43945,-6.19922 10.3813,-7.21316 17.23666,-10.91962 25.3711,-13.7207 l 5.83398,-2.00976 23.94141,-40.74024 c 13.16714,-22.40657 24.3351,-40.86145 24.81836,-41.01172 z m 0.40039,64.80469 c -0.2826,0 -4.34816,6.30003 -9.03516,14 l -8.52148,14 4.7871,4.91601 c 9.94386,10.20899 19.91109,28.32856 23.56641,42.84571 1.66537,6.6141 1.97668,10.1165 1.60156,17.98047 -0.54941,11.51723 -2.27695,15.88443 -7.71093,19.48047 -5.87257,3.88628 -11.67974,4.55343 -45.33204,5.21484 l -31.64062,0.62305 -6.74805,11.17578 c -17.82059,29.51502 -69.86153,116.9517 -70.32226,118.15234 -0.41664,1.08575 0.0352,1.18304 2.24804,0.48047 1.52371,-0.48378 20.92164,-6.77563 43.10547,-13.98047 22.18383,-7.20483 41.21775,-13.35976 42.29883,-13.67773 1.65527,-0.48684 4.31454,2.56141 16.83985,19.29883 l 14.87304,19.875 45.06641,-30.05469 45.06445,-30.05274 34.19727,14.58594 c 18.80843,8.02247 34.50572,14.45995 34.88281,14.30469 0.79674,-0.32804 -3.58254,-8.21873 -59.5,-107.19336 -53.90676,-95.41564 -69.08917,-121.97461 -69.7207,-121.97461 z m -319.23243,169.91601 -2.24023,2.75782 c -4.03803,4.96685 -76.17267,121.39977 -77.73633,125.47461 -0.72575,1.89127 -3.6523,3.69622 30.71485,-18.9375 18.34504,-12.08179 28.93192,-18.49516 29.64257,-17.95703 8.8,6.66374 35.64371,26.44319 37.22071,27.42578 1.9538,1.21737 3.4644,0.2862 21.82617,-13.47266 l 19.72461,-14.78125 8.51758,8.47656 c 4.68418,4.66247 8.71537,8.27877 8.95898,8.03516 0.52019,-0.52019 -10.82285,-16.49815 -48.83594,-68.78906 z"
		/>
	</g>
</svg>
