<?xml version="1.0" encoding="UTF-8" standalone="no"?>
<svg xmlns="http://www.w3.org/2000/svg" width="1000" height="1000" viewBox="0 0 264.58333 264.58334" version="1.1">
	<radialGradient id="Gradient" cx="0.5" cy="0.5" r="0.85" fx="0.35" fy="0.55">
		<stop offset="0%" stop-color="#ccc" />
		<stop offset="25%" stop-color="#aaa" />
		<stop offset="100%" stop-color="#333" />
	</radialGradient>
	<style type="text/css">
		.primary { fill: url(#Gradient); }
	</style>
	<g class="primary">
		<path
			d="M 28.194619,262.68208 C 28.020642,262.24215 21.826238,246.08257 14.429276,226.77189 7.0323142,207.4612 0.9077072,191.49484 0.81903812,191.29107 0.7118025,191.04462 14.150074,175.90609 40.953322,146.07882 L 81.248819,101.23708 79.85427,101.07742 C 79.087271,100.98961 61.783508,99.723143 41.401461,98.26304 21.019417,96.802938 4.2512557,95.538761 4.1388794,95.453756 3.9777534,95.331872 37.463376,15.00155 37.777299,14.75688 c 0.045,-0.03508 28.529494,3.079443 63.298861,6.921156 34.76938,3.841713 63.36071,6.939184 63.53628,6.883268 0.17558,-0.05591 8.60292,-5.719596 18.72741,-12.585959 l 18.40816,-12.4842982 30.82635,11.1500062 30.82634,11.150005 -0.13193,0.764771 c -0.0726,0.420626 -4.9463,31.25532 -10.83051,68.52154 l -10.69858,67.756771 9.27062,46.0746 c 5.09884,25.34103 9.24293,46.10342 9.20908,46.13866 -0.0338,0.0353 -14.59858,1.94259 -32.36607,4.23861 l -32.30453,4.17456 -23.2061,-6.99555 -23.2061,-6.99555 -59.317306,6.87033 c -32.624516,3.77869 -59.765283,6.93147 -60.312817,7.00622 -0.928689,0.12679 -1.016749,0.0822 -1.311838,-0.66394 z m 59.393428,-34.55505 c 21.431993,-0.91713 41.521063,-2.47135 46.116763,-3.56792 4.20218,-1.00266 8.34205,-2.83251 11.92969,-5.27299 2.24675,-1.52834 7.37394,-6.10238 8.34959,-7.44881 l 0.47784,-0.65942 -1.48782,-1.2402 c -6.27235,-5.22845 -13.99897,-8.5825 -22.01727,-9.55747 -2.79925,-0.34037 -11.17946,-0.15578 -19.11743,0.4211 -6.70524,0.48729 -30.791056,0.78431 -30.791056,0.37972 0,-0.55609 2.574362,-5.5582 3.798472,-7.38061 1.711433,-2.54792 15.400254,-22.11805 17.954794,-25.66895 24.22612,-33.67512 38.7094,-54.67839 42.8661,-62.16331 3.99054,-7.185674 8.38477,-19.554988 9.61346,-27.060851 2.96315,-18.101414 -8.4224,-33.274149 -28.04625,-37.375273 -5.47252,-1.143683 -8.51097,-1.38325 -17.57542,-1.385728 -19.634996,-0.0053 -35.633165,2.434596 -49.385205,7.532003 -4.469925,1.656846 -10.315715,4.409334 -12.63017,5.946906 -2.192105,1.456294 -7.601322,6.313726 -9.376274,8.419819 L 37.041667,63.5 l 0.01329,2.360527 c 0.01575,2.800407 0.660251,4.57233 2.245929,6.174657 1.428659,1.443671 3.273708,1.716999 7.797367,1.155113 3.078266,-0.382352 3.378577,-0.47229 5.865092,-1.756469 2.959358,-1.528381 6.176421,-2.838067 11.285677,-4.594472 13.761571,-4.730811 27.616997,-6.815415 40.830828,-6.143164 8.38768,0.426719 11.85287,1.028658 15.66022,2.720337 2.79007,1.239687 4.4989,2.719377 5.62683,4.872334 0.84328,1.609636 0.86793,1.7518 0.86413,4.983148 -0.003,2.901829 -0.10239,3.640618 -0.77601,5.790121 -2.06202,6.580243 -7.39685,16.563742 -16.12852,30.182558 -4.92629,7.68357 -7.0901,10.70424 -26.061773,36.38236 -18.56972,25.13406 -21.938473,30.02846 -30.285403,44.00105 -4.983163,8.34172 -6.022916,11.24436 -6.023912,16.81676 -6.2e-4,2.81959 0.11279,3.82882 0.620477,5.52727 2.002737,6.70002 6.867579,12.04502 13.139948,14.43683 5.639674,2.15056 9.607697,2.41406 25.872228,1.71807 z m 125.298933,-0.8588 c 4.1065,-1.98308 7.1076,-7.07785 8.48961,-14.41229 1.04334,-5.53699 1.20435,-10.08624 0.83956,-23.72 -0.35364,-13.21663 -0.35406,-13.13246 0.43058,-84.20305 0.44179,-40.016335 0.39973,-47.124806 -0.31199,-52.734499 -0.52722,-4.155499 -0.82393,-5.294032 -1.93195,-7.41343 -2.97941,-5.698959 -12.01331,-8.283852 -17.95229,-5.13674 -1.44495,0.765695 -3.61394,2.813961 -4.84571,4.575997 -1.23658,1.76892 -20.43831,36.250649 -21.61967,38.823755 -1.13541,2.473055 -1.72163,6.056384 -1.24242,7.594406 0.89034,2.857527 3.40283,4.164347 6.86494,3.570657 2.19576,-0.376527 3.95471,-1.470178 8.61586,-5.35697 2.31579,-1.931067 4.28227,-3.511032 4.36997,-3.511032 0.0877,0 0.0776,5.793204 -0.0224,12.873785 -0.10002,7.080581 -0.30395,21.355691 -0.45321,31.722491 -0.53084,36.86932 -0.77116,70.57633 -0.52674,73.88211 0.83065,11.23475 3.7147,18.72741 8.56983,22.26416 2.35988,1.71907 3.84363,2.18302 6.6839,2.09 2.02105,-0.0662 2.53605,-0.18204 4.04213,-0.90935 z"
		/>
	</g>
</svg>
