<?xml version="1.0" encoding="UTF-8" standalone="no"?>
<svg
   xmlns:dc="http://purl.org/dc/elements/1.1/"
   xmlns:cc="http://creativecommons.org/ns#"
   xmlns:rdf="http://www.w3.org/1999/02/22-rdf-syntax-ns#"
   xmlns:svg="http://www.w3.org/2000/svg"
   xmlns="http://www.w3.org/2000/svg"
   xmlns:sodipodi="http://sodipodi.sourceforge.net/DTD/sodipodi-0.dtd"
   xmlns:inkscape="http://www.inkscape.org/namespaces/inkscape"
   sodipodi:docname="aside-left.svg"
   inkscape:version="1.0 (4035a4fb49, 2020-05-01)"
   id="svg2206"
   version="1.1"
   viewBox="0 0 264.58333 264.58334"
   height="1000"
   width="1000">
  <defs
     id="defs2200" />
  <sodipodi:namedview
     inkscape:window-maximized="1"
     inkscape:window-y="-8"
     inkscape:window-x="1272"
     inkscape:window-height="1418"
     inkscape:window-width="2560"
     showgrid="true"
     inkscape:document-rotation="0"
     inkscape:current-layer="layer1"
     inkscape:document-units="px"
     inkscape:cy="525.31994"
     inkscape:cx="418.02838"
     inkscape:zoom="1.1476306"
     inkscape:pageshadow="2"
     inkscape:pageopacity="0.0"
     borderopacity="1.0"
     bordercolor="#666666"
     pagecolor="#ffffff"
     id="base"
     units="px">
    <inkscape:grid
       id="grid17"
       type="xygrid" />
  </sodipodi:namedview>
  <metadata
     id="metadata2203">
    <rdf:RDF>
      <cc:Work
         rdf:about="">
        <dc:format>image/svg+xml</dc:format>
        <dc:type
           rdf:resource="http://purl.org/dc/dcmitype/StillImage" />
        <dc:title />
      </cc:Work>
    </rdf:RDF>
  </metadata>
  <g
     inkscape:groupmode="layer"
     style="display:none"
     inkscape:label="Contours"
     id="layer4">
    <rect
       ry="6.6145835"
       rx="6.6145835"
       y="0"
       x="0"
       height="264.58334"
       width="264.58334"
       id="rect832"
       style="fill:#000000;stroke-width:0.264583" />
    <rect
       ry="6.614583"
       rx="6.614583"
       y="13.229167"
       x="13.229167"
       height="238.125"
       width="52.916668"
       id="rect834"
       style="fill:#ffffff;stroke-width:0.264583" />
  </g>
  <g
     style="display:inline"
     inkscape:label="Pleins"
     id="layer1"
     inkscape:groupmode="layer">
    <path
       transform="scale(0.26458333)"
       id="path838"
       d="M 14.55525,997.27878 C 8.8811811,994.63655 3.209757,988.20905 1.5140059,982.49876 0.36448891,978.62792 0.21100172,921.79804 0.21100172,500.05048 0.21100172,76.253217 0.36033845,21.486979 1.526659,17.559551 3.2702162,11.688358 9.2011325,5.1224073 15.216326,2.4041073 L 19.816614,0.32521102 H 499.93627 980.05593 l 4.79248,2.25791248 c 6.1735,2.9085502 10.91196,7.8577245 13.08566,13.6674255 1.71466,4.582842 1.72747,8.163094 1.72747,483.799931 0,476.28201 -0.0105,479.211 -1.73436,483.8185 -2.05292,5.48678 -7.44525,11.11995 -13.07877,13.66284 l -3.92112,1.77 -480.99102,0.0104 -480.991017,0.0105 -4.390003,-2.0443 z m 220.48742,-49.17576 c 5.5121,-2.53696 9.54084,-6.38568 12.49469,-11.93659 l 2.31844,-4.3568 0.22133,-429.99926 c 0.19462,-378.10584 0.0652,-430.536297 -1.0723,-434.44919 -1.63316,-5.61789 -7.05281,-11.884957 -12.98332,-15.013421 l -4.46429,-2.354997 H 150.08501 68.612804 L 64.604671,51.96772 C 59.769057,54.35041 54.7354,59.202248 52.189415,63.93453 l -1.875182,3.485443 -0.221325,430.870287 c -0.204189,397.50935 -0.110597,431.20364 1.208786,435.176 1.563589,4.70744 6.971518,11.1826 11.16639,13.36981 6.999055,3.64943 6.271554,3.62128 88.923976,3.44309 l 79.2938,-0.17096 z"
       style="fill:#000000;stroke-width:0.871361" />
  </g>
</svg>
