<?xml version="1.0" encoding="UTF-8" standalone="no"?>
<svg
   xmlns:dc="http://purl.org/dc/elements/1.1/"
   xmlns:cc="http://creativecommons.org/ns#"
   xmlns:rdf="http://www.w3.org/1999/02/22-rdf-syntax-ns#"
   xmlns:svg="http://www.w3.org/2000/svg"
   xmlns="http://www.w3.org/2000/svg"
   xmlns:xlink="http://www.w3.org/1999/xlink"
   xmlns:sodipodi="http://sodipodi.sourceforge.net/DTD/sodipodi-0.dtd"
   xmlns:inkscape="http://www.inkscape.org/namespaces/inkscape"
   sodipodi:docname="ondegriffe.svg"
   inkscape:version="1.0 (4035a4fb49, 2020-05-01)"
   id="svg2206"
   version="1.1"
   viewBox="0 0 264.58333 264.58334"
   height="1000"
   width="1000">
  <defs
     id="defs2200">
    <rect
       x="31.75"
       y="71.4375"
       width="148.16667"
       height="13.229167"
       id="rect836" />
  </defs>
  <sodipodi:namedview
     inkscape:window-maximized="1"
     inkscape:window-y="-8"
     inkscape:window-x="1272"
     inkscape:window-height="1418"
     inkscape:window-width="2560"
     showgrid="true"
     inkscape:document-rotation="0"
     inkscape:current-layer="layer1"
     inkscape:document-units="px"
     inkscape:cy="509.16867"
     inkscape:cx="547.35446"
     inkscape:zoom="1.1849519"
     inkscape:pageshadow="2"
     inkscape:pageopacity="0.0"
     borderopacity="1.0"
     bordercolor="#666666"
     pagecolor="#ffffff"
     id="base"
     units="px">
    <inkscape:grid
       id="grid17"
       type="xygrid" />
  </sodipodi:namedview>
  <metadata
     id="metadata2203">
    <rdf:RDF>
      <cc:Work
         rdf:about="">
        <dc:format>image/svg+xml</dc:format>
        <dc:type
           rdf:resource="http://purl.org/dc/dcmitype/StillImage" />
        <dc:title></dc:title>
      </cc:Work>
    </rdf:RDF>
  </metadata>
  <g
     inkscape:groupmode="layer"
     style="display:none"
     inkscape:label="Contours"
     id="layer4">
    <path
       sodipodi:nodetypes="caacaac"
       id="path903"
       d="m 177.27083,164.04167 c 0,0 -22.41541,-9.97718 -34.39583,-10.58333 -17.96523,-0.90895 -35.05873,8.42236 -52.91666,10.58333 -20.156843,2.43915 -60.854166,2.64584 -60.854166,2.64584 0,0 44.274263,-8.01176 66.145832,-13.22917 16.026404,-3.82306 31.378954,-15.97276 47.624994,-13.22917 13.75007,2.32208 34.39583,23.8125 34.39583,23.8125 z"
       style="fill:#b3b3b3;fill-rule:evenodd;stroke:none;stroke-width:0.264583px;stroke-linecap:butt;stroke-linejoin:miter;stroke-opacity:1" />
    <path
       sodipodi:nodetypes="aacaaaa"
       id="path897"
       d="m 63.5,44.979167 c 4.717715,33.003886 66.46329,30.116547 79.375,60.854163 14.10773,33.58487 -13.22917,108.47917 -13.22917,108.47917 0,0 70.36019,-67.10274 71.4375,-111.125 C 201.90494,69.614109 178.25954,35.227197 150.8125,15.875001 134.69504,4.5109998 110.92485,-2.0066689 92.604167,5.2916675 77.363828,11.362901 61.178581,28.73913 63.5,44.979167 Z"
       style="fill:#000000;fill-rule:evenodd;stroke:none;stroke-width:0.264583px;stroke-linecap:butt;stroke-linejoin:miter;stroke-opacity:1" />
    <path
       sodipodi:nodetypes="caaacaac"
       id="path899"
       d="m 137.58333,182.5625 c 0,0 22.93993,-22.19679 37.04167,-29.10417 6.53127,-3.19917 14.00067,-6.53292 21.16666,-5.29167 6.26648,1.08544 9.78809,8.74037 15.875,10.58334 16.88204,5.11147 52.91667,0 52.91667,0 0,0 -36.71627,11.1183 -55.5625,10.58333 -7.26977,-0.20636 -13.90457,-5.68425 -21.16667,-5.29167 -17.83198,0.96397 -50.27083,18.52084 -50.27083,18.52084 z"
       style="fill:#999999;fill-rule:evenodd;stroke:none;stroke-width:0.264583px;stroke-linecap:butt;stroke-linejoin:miter;stroke-opacity:1" />
    <path
       sodipodi:nodetypes="caacaac"
       id="path901"
       d="m 166.6875,187.85416 c 0,0 -29.11969,14.7479 -44.97917,15.875 C 99.27964,205.32312 77.938329,192.71564 55.562499,190.5 c -16.675394,-1.65119 -50.2708324,0 -50.2708324,0 0,0 38.6449184,-8.79834 58.2083324,-7.9375 19.878337,0.8747 38.316681,12.74366 58.208331,13.22916 15.22019,0.37148 44.97917,-7.9375 44.97917,-7.9375 z"
       style="fill:#999999;fill-rule:evenodd;stroke:none;stroke-width:0.264583px;stroke-linecap:butt;stroke-linejoin:miter;stroke-opacity:1" />
    <path
       sodipodi:nodetypes="cacac"
       id="path905"
       d="m 140.22916,161.39583 c -2.64583,0 -13.58915,8.39077 -21.16666,10.58333 -8.51418,2.46358 -26.458334,2.64584 -26.458334,2.64584 0,0 19.418894,-5.23327 29.104164,-7.9375 6.18412,-1.72667 18.52083,-5.29167 18.52083,-5.29167 z"
       style="fill:#b3b3b3;fill-rule:evenodd;stroke:none;stroke-width:0.264583px;stroke-linecap:butt;stroke-linejoin:miter;stroke-opacity:1" />
    <path
       sodipodi:nodetypes="caacaac"
       id="path907"
       d="m 248.70833,203.72916 c 0,0 -30.03257,-4.11852 -44.97917,-2.64583 -20.86255,2.05559 -40.06099,13.20748 -60.85416,15.875 -11.37208,1.4589 -34.39583,0 -34.39583,0 0,0 26.19857,8.18267 39.68749,7.9375 19.03542,-0.34598 36.91952,-9.36831 55.5625,-13.22917 14.90838,-3.08744 44.97917,-7.9375 44.97917,-7.9375 z"
       style="fill:#b3b3b3;fill-rule:evenodd;stroke:none;stroke-width:0.264583px;stroke-linecap:butt;stroke-linejoin:miter;stroke-opacity:1" />
    <path
       sodipodi:nodetypes="caacaac"
       id="path909"
       d="m 5.2916666,240.77083 c 0,0 42.0511084,-9.93675 63.4999994,-10.58333 33.683744,-1.0154 66.912544,12.75316 100.541664,10.58333 18.99906,-1.22587 55.5625,-13.22917 55.5625,-13.22917 0,0 -32.32385,18.25428 -50.27083,21.16667 -34.052,5.52588 -68.71547,-6.61361 -103.187501,-7.9375 -22.032369,-0.84615 -66.1458324,0 -66.1458324,0 z"
       style="fill:#b3b3b3;fill-rule:evenodd;stroke:none;stroke-width:0.264583px;stroke-linecap:butt;stroke-linejoin:miter;stroke-opacity:1" />
  </g>
  <g
     id="g926"
     inkscape:label="Décalages"
     style="display:none"
     inkscape:groupmode="layer">
    <path
       style="fill:#4d4d4d;fill-rule:evenodd;stroke:none;stroke-width:0.264583px;stroke-linecap:butt;stroke-linejoin:miter;stroke-opacity:1"
       d="m 179.91667,142.875 c 0,0 -22.41541,-9.97718 -34.39583,-10.58333 -17.96523,-0.90895 -35.05873,8.42236 -52.916662,10.58333 -20.156843,2.43915 -60.854166,2.64584 -60.854166,2.64584 0,0 44.274263,-8.01176 66.145832,-13.22917 16.026406,-3.82306 31.378956,-15.97276 47.624996,-13.22917 13.75007,2.32208 34.39583,23.8125 34.39583,23.8125 z"
       id="path912"
       sodipodi:nodetypes="caacaac" />
    <path
       d="M 106.80273,-5.3886719 C 101.01112,-5.116383 95.241842,-4.0108387 89.767578,-1.8300781 80.678455,1.7907199 71.999359,8.3205875 65.462891,16.556641 58.926422,24.792694 54.34412,35.093256 55.912109,46.0625 c 1.513067,10.585014 7.963497,18.614722 15.650391,24.21875 7.686894,5.604028 16.739885,9.408212 25.640625,13.064453 17.801475,7.312482 33.872335,14.189335 38.605465,25.457027 5.58142,13.28712 3.20483,39.84612 -1.74218,62.20899 -4.94702,22.36286 -11.6211,40.67187 -11.6211,40.67187 a 7.6656244,7.6656244 0 0 0 12.49024,8.17579 c 0,0 17.92765,-17.08326 36.02343,-39.82813 18.09579,-22.74487 37.15095,-50.66046 37.78711,-76.65625 0.91274,-37.297079 -24.27016,-73.142081 -53.51757,-93.7636719 -13.41735,-9.46021511 -31.05069,-15.8168791 -48.42579,-15 z"
       id="path930"
       xlink:href="#path928"
       inkscape:original="M 107.16211 2.2675781 C 102.10547 2.5053127 97.183686 3.4664315 92.603516 5.2910156 C 77.363177 11.362249 61.178581 28.738479 63.5 44.978516 C 68.217715 77.982402 129.96329 75.096368 142.875 105.83398 C 156.98273 139.41885 129.64648 214.3125 129.64648 214.3125 C 129.64648 214.3125 200.00667 147.20976 201.08398 103.1875 C 201.90559 69.614109 178.25954 35.227196 150.8125 15.875 C 138.7244 7.3519991 122.33202 1.5543743 107.16211 2.2675781 z "
       inkscape:radius="7.6648579"
       sodipodi:type="inkscape:offset"
       style="fill:#ffffff;fill-rule:evenodd;stroke:none;stroke-width:0.264583px;stroke-linecap:butt;stroke-linejoin:miter;stroke-opacity:1" />
    <path
       inkscape:label="Griffe"
       style="display:inline;fill:#000000;fill-rule:evenodd;stroke:none;stroke-width:0.264583px;stroke-linecap:butt;stroke-linejoin:miter;stroke-opacity:1"
       d="m 63.5,44.979167 c 4.717715,33.003886 66.46329,30.116547 79.375,60.854163 14.10773,33.58487 -13.22917,108.47917 -13.22917,108.47917 0,0 70.36019,-67.10274 71.4375,-111.125 C 201.90494,69.614109 178.25954,35.227197 150.8125,15.875001 134.69504,4.5109998 110.92485,-2.0066689 92.604167,5.2916675 77.363828,11.362901 61.178581,28.73913 63.5,44.979167 Z"
       id="path914"
       sodipodi:nodetypes="aacaaaa" />
    <path
       transform="translate(-0.13150545,-10.472659)"
       d="m 193.27734,137.47266 c -1.26122,-0.0299 -2.49851,0.0272 -3.70312,0.15234 -7.22865,0.75072 -13.33773,3.72307 -18.37695,6.19141 -8.51281,4.16978 -17.7519,11.63681 -25.44532,18.21679 -7.69341,6.57999 -13.58593,12.28321 -13.58593,12.28321 a 7.7920837,7.7920837 0 0 0 9.12695,12.45117 c 0,0 7.84467,-4.24178 17.85351,-8.60742 10.00884,-4.36565 22.50237,-8.62626 29.12696,-8.98438 1.55308,-0.084 3.96243,0.59518 7.34765,1.90625 3.38523,1.31107 7.65766,3.23778 13.17969,3.39453 11.09696,0.315 25.06076,-2.52335 36.85352,-5.29687 11.79276,-2.77353 21.1875,-5.61914 21.1875,-5.61914 a 7.7920837,7.7920837 0 0 0 -3.35157,-15.17188 c 0,0 -8.71459,1.23489 -19.48046,1.85352 -10.76588,0.61863 -23.80589,0.30574 -30.08594,-1.59571 -0.57932,-0.1754 -2.2705,-1.42526 -4.79102,-3.79492 -2.52051,-2.36965 -6.0859,-5.98138 -12.01172,-7.00781 -1.29718,-0.22469 -2.58252,-0.34121 -3.84375,-0.37109 z"
       id="path934"
       xlink:href="#path932"
       inkscape:original="M 190.37891 145.375 C 184.94883 145.93893 179.52345 148.41312 174.625 150.8125 C 160.52326 157.71988 137.58398 179.91602 137.58398 179.91602 C 137.58398 179.91602 170.02154 162.36045 187.85352 161.39648 C 195.11562 161.0039 201.75171 166.48114 209.02148 166.6875 C 227.86771 167.22247 264.58398 156.10352 264.58398 156.10352 C 264.58398 156.10352 228.54806 161.21499 211.66602 156.10352 C 205.57911 154.26055 202.0575 146.60692 195.79102 145.52148 C 193.99952 145.21117 192.18893 145.18702 190.37891 145.375 z "
       inkscape:radius="7.7913046"
       sodipodi:type="inkscape:offset"
       style="display:inline;fill:#ffffff;fill-rule:evenodd;stroke:none;stroke-width:0.264583px;stroke-linecap:butt;stroke-linejoin:miter;stroke-opacity:1" />
    <path
       inkscape:label="Onde 1"
       style="display:inline;fill:#999999;fill-rule:evenodd;stroke:none;stroke-width:0.264583px;stroke-linecap:butt;stroke-linejoin:miter;stroke-opacity:1"
       d="m 137.45183,166.79815 c 0,0 22.93993,-22.19679 37.04167,-29.10417 6.53127,-3.19917 14.00067,-6.53292 21.16666,-5.29167 6.26648,1.08544 9.78809,8.74037 15.875,10.58334 16.88204,5.11147 52.91667,0 52.91667,0 0,0 -36.71627,11.1183 -55.5625,10.58333 -7.26977,-0.20636 -13.90457,-5.68425 -21.16667,-5.29167 -17.83198,0.96397 -50.27083,18.52084 -50.27083,18.52084 z"
       id="path916"
       sodipodi:nodetypes="caaacaac" />
    <path
       transform="translate(15.875001,-5.2916589)"
       d="m 63.849609,174.63281 c -11.197498,-0.49272 -25.81404,1.62362 -38.142578,3.75391 -12.328538,2.13029 -22.1777341,4.37305 -22.1777341,4.37305 a 7.9382928,7.9382928 0 0 0 2.1503906,15.66796 c 0,0 33.9828605,-1.52634 49.1015625,-0.0293 19.930258,1.97348 41.754419,15.07704 67.49023,13.24804 10.02897,-0.71273 21.33811,-4.98905 30.90625,-8.94336 9.56815,-3.9543 17.09571,-7.76757 17.09571,-7.76757 a 7.9382928,7.9382928 0 0 0 -5.72071,-14.72657 c 0,0 -7.235,2.01814 -16.33398,3.9961 -9.09898,1.97796 -20.27558,3.79783 -26.31641,3.65039 -16.85682,-0.41143 -35.239531,-12.21882 -58.052731,-13.22266 z"
       id="path938"
       xlink:href="#path936"
       inkscape:original="M 63.5 182.5625 C 43.936586 181.70166 5.2910156 190.5 5.2910156 190.5 C 5.2910156 190.5 38.887106 188.84881 55.5625 190.5 C 77.93833 192.71564 99.280294 205.32248 121.70898 203.72852 C 137.56846 202.60142 166.6875 187.85352 166.6875 187.85352 C 166.6875 187.85352 136.92917 196.1625 121.70898 195.79102 C 101.81733 195.30552 83.378337 183.4372 63.5 182.5625 z "
       inkscape:radius="7.937499"
       sodipodi:type="inkscape:offset"
       style="fill:#ffffff;fill-rule:evenodd;stroke:none;stroke-width:0.264583px;stroke-linecap:butt;stroke-linejoin:miter;stroke-opacity:1" />
    <path
       inkscape:label="Onde 2"
       style="fill:#999999;fill-rule:evenodd;stroke:none;stroke-width:0.264583px;stroke-linecap:butt;stroke-linejoin:miter;stroke-opacity:1"
       d="m 182.5625,182.5625 c 0,0 -29.11969,14.7479 -44.97917,15.875 -22.42869,1.59396 -43.77,-11.01352 -66.14583,-13.22916 -16.675394,-1.65119 -50.270832,0 -50.270832,0 0,0 38.644918,-8.79834 58.208332,-7.9375 19.878337,0.8747 38.31668,12.74366 58.20833,13.22916 15.22019,0.37148 44.97917,-7.9375 44.97917,-7.9375 z"
       id="path918"
       sodipodi:nodetypes="caacaac" />
    <path
       style="fill:#666666;fill-rule:evenodd;stroke:none;stroke-width:0.264583px;stroke-linecap:butt;stroke-linejoin:miter;stroke-opacity:1"
       d="m 129.64583,148.16667 c -2.64583,0 -13.58915,8.39077 -21.16666,10.58333 -8.514176,2.46358 -26.458329,2.64584 -26.458329,2.64584 0,0 19.418889,-5.23327 29.104159,-7.9375 6.18412,-1.72667 18.52083,-5.29167 18.52083,-5.29167 z"
       id="path920"
       sodipodi:nodetypes="cacac" />
    <path
       style="fill:#4d4d4d;fill-rule:evenodd;stroke:none;stroke-width:0.264583px;stroke-linecap:butt;stroke-linejoin:miter;stroke-opacity:1"
       d="m 248.70833,203.72916 c 0,0 -30.03257,-4.11852 -44.97917,-2.64583 -20.86255,2.05559 -40.06099,13.20748 -60.85416,15.875 -11.37208,1.4589 -34.39583,0 -34.39583,0 0,0 26.19857,8.18267 39.68749,7.9375 19.03542,-0.34598 36.91952,-9.36831 55.5625,-13.22917 14.90838,-3.08744 44.97917,-7.9375 44.97917,-7.9375 z"
       id="path922"
       sodipodi:nodetypes="caacaac" />
    <path
       style="fill:#666666;fill-rule:evenodd;stroke:none;stroke-width:0.264583px;stroke-linecap:butt;stroke-linejoin:miter;stroke-opacity:1"
       d="m 5.2916666,240.77083 c 0,0 42.0511084,-9.93675 63.4999994,-10.58333 33.683744,-1.0154 66.912544,12.75316 100.541664,10.58333 18.99906,-1.22587 55.5625,-13.22917 55.5625,-13.22917 0,0 -32.32385,18.25428 -50.27083,21.16667 -34.052,5.52588 -68.71547,-6.61361 -103.187501,-7.9375 -22.032369,-0.84615 -66.1458324,0 -66.1458324,0 z"
       id="path924"
       sodipodi:nodetypes="caacaac" />
  </g>
  <g
     inkscape:label="Pleins"
     id="layer1"
     inkscape:groupmode="layer">
    <path
       transform="scale(0.26458333)"
       d="m 412.35156,10.484375 c -14.0497,-0.05845 -29.09832,0.776281 -37.875,2.353516 -37.66878,6.769353 -70.58121,24.50133 -100.88086,54.353515 -30.07114,29.627054 -47.63063,60.241394 -53.83789,93.861324 -1.94022,10.50894 -1.91887,31.27674 0.043,41.2461 5.00025,25.40948 16.18888,45.72956 36.36524,66.04687 24.79929,24.97253 43.89288,35.92743 121.13867,69.50391 14.1567,6.1535 31.41778,13.81938 38.35742,17.03516 48.76847,22.59892 77.91155,45.6674 90.52148,71.65429 2.74163,5.65001 8.67969,22.06239 8.67969,23.98828 0,0.22653 -1.61329,0.41302 -3.58594,0.41602 -5.00335,0.007 -18.72574,2.15331 -26.57812,4.1582 -16.63087,4.24624 -31.14219,9.75578 -66.94141,25.41016 -27.61274,12.07457 -38.16922,16.18865 -51.66406,20.13476 -23.66685,6.92059 -106.709,24.73124 -200.66211,43.03711 -23.93228,4.66297 -44.92392,9.06738 -46.64648,9.78711 -3.74019,1.56275 -9.52664,6.61571 -11.04297,9.64453 -2.37226,4.73849 -3.14101,10.18592 -2.13867,15.14649 1.80859,8.95078 6.42331,14.27017 15.15039,17.46094 3.37624,1.23442 7.4034,1.33304 36.28906,0.87695 66.54482,-1.05072 141.39857,-4.49184 176.80078,-8.12695 30.15575,-3.09641 49.12571,-7.29603 99.41211,-22.00782 42.51255,-12.43747 63.69998,-17.39399 81.07812,-18.96875 l 6.61329,-0.59961 -0.57618,8.35157 c -0.31724,4.59391 -1.3749,15.37799 -2.34961,23.96484 -2.29265,20.19733 -2.23396,23.31811 0.54688,29.00195 l 2.2207,4.53711 -7.39258,7.05274 c -17.14548,16.35809 -21.34689,20.90936 -23.42578,25.375 -2.52609,5.42625 -2.60633,7.8445 -0.49804,15.21679 2.08095,7.27669 5.17757,11.12736 11.3457,14.10938 2.82939,1.36789 4.53793,2.63973 3.99609,2.97461 -3.65907,2.26143 -10.64757,28.59148 -9.95507,37.50391 l 0.41796,5.38476 -5.06054,-0.5293 c -15.99858,-1.67219 -38.42185,-7.73497 -79.99805,-21.63086 -62.27294,-20.81332 -87.71358,-26.17745 -124.05664,-26.15625 -35.81725,0.0209 -86.2145,6.48675 -151.06055,19.38086 -36.716228,7.30072 -52.691346,10.84815 -56.804685,12.61133 -10.509008,4.50469 -15.414255,18.96613 -10.181641,30.01758 2.486573,5.25172 5.694642,8.33297 11.28711,10.83984 4.647784,2.08342 4.825038,2.085 65.404296,0.5918 46.11927,-1.13679 90.74676,-0.80194 111.59961,0.83594 31.62682,2.4841 48.90886,6.44584 110.34961,25.30273 50.32128,15.44419 73.65951,21.29053 94.98828,23.79297 6.68448,0.78427 8.37913,1.25386 8.33203,2.30664 -0.0325,0.72697 -2.0254,7.01306 -4.42969,13.9707 l -4.37109,12.6504 -13.92578,-0.2461 c -7.65854,-0.13606 -19.99368,-0.61644 -27.41211,-1.0664 -15.81816,-0.95944 -20.44199,-0.29585 -26.37891,3.78515 -10.7001,7.35519 -12.65945,25.54242 -3.63086,33.69922 5.0591,4.57057 10.45295,6.93344 26.41993,11.57422 43.33792,12.59595 87.25276,22.20559 111.18359,24.32812 29.43407,2.61066 62.98032,-1.3725 102.79687,-12.20703 5.88573,-1.60158 28.60156,-8.60654 50.48047,-15.5664 21.87892,-6.95986 46.1848,-14.36498 54.01172,-16.45508 22.41197,-5.98479 66.04489,-14.58756 141.24024,-27.84766 46.42323,-8.18638 46.98508,-8.32944 52.18554,-13.31445 8.0302,-7.69739 9.05962,-20.4728 2.40821,-29.88477 -5.26275,-7.447 -8.12868,-8.32908 -38.98242,-12.0039 -45.54779,-5.42497 -70.97673,-7.08335 -109.70899,-7.15235 -35.31791,-0.0629 -39.79697,0.29452 -63.16797,5.04493 -18.96789,3.85544 -32.81612,7.96388 -83.67383,24.82812 -60.47167,20.05219 -61.36298,20.33256 -78.29297,24.51172 -11.09942,2.73988 -28.04569,5.88086 -31.72851,5.88086 -0.51755,0 0.3738,-1.72462 1.98242,-3.83203 1.60863,-2.10741 3.35796,-5.43083 3.88672,-7.38477 0.95033,-3.51168 0.66307,-12.29585 -0.49609,-15.15625 -0.44331,-1.09392 -0.18849,-1.47656 0.98242,-1.47656 2.66919,0 23.72465,-5.54061 35.30859,-9.29102 29.68607,-9.61118 65.13291,-24.44927 102.95117,-43.0957 18.03575,-8.89258 22.31389,-12.31036 24.46289,-19.54687 2.03414,-6.84967 1.65645,-10.07374 -2.02929,-17.32813 -3.72963,-7.34077 -6.70739,-9.87373 -13.81055,-11.74219 -5.45889,-1.43596 -6.43075,-1.28305 -31.29883,4.91016 -11.08376,2.76033 -20.45569,4.90812 -20.82617,4.77344 -0.37048,-0.13468 5.58002,-8.59917 13.22461,-18.81055 17.44348,-23.30043 26.96011,-37.34915 28.11328,-41.50195 1.45412,-5.23661 1.10273,-11.98967 -0.83203,-15.98633 -1.62847,-3.36398 -6.10512,-8.03277 -9.67187,-10.08594 -1.29134,-0.74336 0.22078,-1.37478 8.50585,-3.55859 21.52802,-5.67442 34.53796,-6.53283 44.25586,-2.91992 2.55285,0.94909 10.14868,3.82688 16.87891,6.39648 27.32688,10.43345 39.10261,12.0923 69.57422,9.79883 34.37779,-2.58746 79.98822,-11.76382 143.93555,-28.95703 33.40709,-8.982 41.79974,-11.88359 46.28515,-16.00977 11.13472,-10.24321 7.80181,-30.03151 -6.15234,-36.5293 -5.5068,-2.56422 -9.47368,-2.55303 -33.42774,0.082 -66.3645,7.30042 -123.1948,7.16033 -154.94726,-0.38086 -3.89438,-0.92491 -8.20109,-2.2607 -9.57031,-2.96875 -1.36922,-0.70806 -7.71944,-6.26144 -14.11329,-12.33985 -9.72307,-9.2434 -19.35879,-17.12083 -24.55468,-20.07422 -0.87014,-0.4946 -0.004,-3.94878 3.95312,-15.75586 5.76639,-17.20567 11.15532,-38.44218 13.36914,-52.67968 2.15169,-13.83812 2.13097,-56.52514 -0.0351,-71.73243 C 754.85042,325.87691 743.41633,289.09541 723.3575,247.97652 708.98026,218.50441 694.8783,195.56764 674.44344,168.41402 640.41399,123.19621 594.47306,79.546977 554.52734,54.482422 517.31626,31.13376 476.09993,16.343628 434.99023,11.585938 c -6.1394,-0.710524 -14.20885,-1.066492 -22.63867,-1.101563 z m 63.08789,553.740235 c -1.01613,-0.0154 -2.05001,0.0433 -3.09765,0.18164 -2.37335,0.31342 -19.12652,4.88454 -37.22852,10.1582 -18.102,5.27365 -54.93844,15.92306 -81.85937,23.66602 -26.92092,7.74295 -50.90534,14.81184 -53.29883,15.70703 -13.95922,5.22086 -18.41135,25.40378 -8.04688,36.48242 1.24906,1.33512 4.16947,3.3556 6.49024,4.49024 4.19267,2.04983 4.34196,2.06059 23.20898,1.60742 28.75238,-0.69059 57.72587,-3.45028 76.73438,-7.31055 11.65462,-2.36685 20.2053,-5.3166 31.70898,-10.93945 12.84216,-6.27707 56.45982,-32.12072 60.23242,-35.6875 1.56534,-1.47995 3.74475,-4.58939 4.84375,-6.91016 6.78496,-14.32773 -4.44549,-31.21435 -19.6875,-31.44531 z M 826.3125,863.62109 c -5.78877,-0.009 -7.77577,0.51746 -37.17578,9.84375 -52.89115,16.77817 -109.61414,31.08122 -145.57617,36.70704 -14.10815,2.20703 -54.49313,3.04966 -77.28907,1.61328 -25.54046,-1.60931 -57.48417,-6.17882 -106.68359,-15.26172 -111.2242,-20.53355 -136.89649,-23.84656 -185.24023,-23.91016 -32.11046,-0.0422 -57.68071,2.37945 -101.34961,9.59961 -46.7803,7.7346 -145.760506,28.63438 -153.898441,32.49609 -5.696887,2.70335 -5.664587,2.56449 -4.263671,19.01368 0.68881,8.08783 1.255818,15.70261 1.261718,16.92187 0.009,1.8536 0.736836,2.54417 4.441406,4.21875 l 4.431641,2.00195 98.738277,-0.27929 c 157.05066,-0.44632 172.12592,0.39895 262.45704,14.71289 89.0212,14.10636 107.53169,16.67374 142.20117,19.72461 20.00516,1.76044 39.02565,2.00113 68.92578,0.875 43.04714,-1.62129 67.43328,-6.29264 103.73828,-19.87305 33.58509,-12.56297 91.03701,-40.28745 128.61328,-62.06641 15.32374,-8.88154 18.58258,-13.12964 18.54688,-24.16601 -0.0429,-13.23531 -8.84122,-22.15208 -21.87891,-22.17188 z"
       style="fill:#808080;stroke:none;stroke-width:0.843916"
       id="path982" />
    <path
       d="m 138.8148,231.17777 c -7.03947,-0.88758 -16.50137,-3.02513 -26.82459,-6.06001 -4.9906,-1.46716 -5.50607,-1.7216 -3.13537,-1.54762 7.08833,0.52022 19.98424,0.68522 25.89766,0.33137 9.53526,-0.57061 15.41134,-2.01488 33.63471,-8.26714 13.89842,-4.7684 17.27122,-5.77829 23.4261,-7.01423 5.65091,-1.13474 8.28546,-1.31917 16.97855,-1.18853 7.43168,0.11166 11.2038,0.33713 19.45009,1.16255 5.64241,0.56477 13.20919,1.50043 13.37384,1.65372 0.0861,0.0801 -2.38019,0.58009 -5.48041,1.11119 -20.36989,3.48955 -35.87632,6.45801 -41.74305,7.99104 -4.53144,1.18411 -6.21011,1.68894 -14.39953,4.33035 -10.90302,3.51664 -11.4894,3.69803 -15.15174,4.68723 -4.13893,1.1179 -7.84044,1.91329 -11.60559,2.49381 -3.85136,0.59383 -10.97943,0.75016 -14.42067,0.31627 z M 81.471988,167.92116 c 0.06968,-0.0771 6.839606,-2.04775 15.04428,-4.37928 8.204682,-2.33153 18.107712,-5.19178 22.006742,-6.35612 3.89903,-1.16432 7.12413,-2.08056 7.16687,-2.0361 0.0427,0.0445 -0.3427,0.30173 -0.85652,0.57169 -0.51383,0.26997 -2.98722,1.74041 -5.49643,3.26767 -4.80264,2.92318 -9.39266,5.33857 -11.56267,6.08459 -1.69329,0.58212 -4.96927,1.26781 -8.053449,1.68565 -4.507237,0.61062 -18.559274,1.50533 -18.248823,1.1619 z M 33.633435,151.91061 c 0.23641,-0.10897 2.896024,-0.66354 5.910253,-1.23241 12.740403,-2.40446 32.779883,-6.48453 44.058254,-8.97034 15.692373,-3.45866 18.049058,-4.18808 28.500788,-8.8214 7.85248,-3.48103 11.20202,-4.83793 14.54537,-5.89232 2.53258,-0.79869 6.39444,-1.63072 8.0947,-1.74397 l 0.95745,-0.0638 0.1614,0.96087 c 0.24402,1.45274 0.61019,7.66634 0.61019,10.35452 v 2.37871 l -1.55815,0.1565 c -5.06726,0.50893 -11.06554,1.9232 -21.86794,5.15608 -15.894544,4.75679 -19.760842,5.45621 -35.7839,6.47338 -12.661445,0.80377 -44.652297,1.71605 -43.628415,1.24415 z M 144.42382,256.64584 c -0.53193,-0.0457 -2.36947,-0.18986 -4.08344,-0.32024 -6.1725,-0.46957 -14.31584,-1.5106 -24.28577,-3.10465 -2.305,-0.36855 -7.62423,-1.222 -11.82052,-1.89658 -24.844479,-3.99384 -29.891792,-4.28694 -70.563212,-4.09759 -14.282221,0.0665 -25.9361664,0.0891 -25.8976571,0.0504 0.2927107,-0.29465 19.8333671,-4.51414 28.9765281,-6.257 17.777887,-3.38881 27.893483,-4.52759 38.147999,-4.29458 11.06773,0.25149 18.418097,1.22514 40.760102,5.39922 22.99091,4.29531 30.87429,5.26912 42.73566,5.27898 6.82023,0.006 10.34287,-0.27249 15.77871,-1.24589 10.29914,-1.8443 23.38395,-5.25867 37.84341,-9.87492 7.09058,-2.2637 7.49723,-2.36119 5.91025,-1.4167 -7.6522,4.55418 -22.73452,12.06869 -30.84077,15.36587 -12.56165,5.10943 -18.73756,6.2967 -33.4198,6.42472 -4.5509,0.0396 -8.70957,0.0347 -9.24149,-0.0111 z M 127.6602,220.21178 c 0,-0.0978 0.50773,-1.71999 1.12831,-3.60477 l 1.12832,-3.42686 1.28951,-0.004 c 0.70923,-0.002 1.82143,-0.0691 2.47156,-0.14871 l 1.18206,-0.1448 -2.47854,2.7514 c -2.45142,2.72129 -4.72122,4.92207 -4.72122,4.57764 z m -3.65362,-15.4309 c -6.87477,-0.90013 -11.8281,-2.11043 -23.74847,-5.80269 -21.667,-6.7112 -25.679068,-7.44078 -43.091121,-7.83569 -5.530119,-0.12542 -19.260974,0.0954 -29.987477,0.48229 -2.242391,0.0809 -4.02233,0.0845 -3.955419,0.009 0.212175,-0.24229 17.045398,-3.66531 23.196981,-4.71707 19.992496,-3.4182 31.169416,-4.03151 40.619559,-2.22888 4.685878,0.89385 13.283967,3.37879 19.665027,5.68342 3.06288,1.10622 10.51892,3.43384 13.61647,4.25082 9.52186,2.51132 16.50363,2.84894 27.00309,1.30577 6.86506,-1.00899 17.17241,-3.23001 26.22003,-5.64986 2.48231,-0.6639 4.55292,-1.16727 4.60136,-1.11856 0.12605,0.12674 -6.00285,3.14834 -10.89544,5.37153 -10.86966,4.93917 -19.85282,8.18913 -26.91079,9.73588 -2.90518,0.63667 -3.48037,0.68821 -8.48929,0.76074 -3.81215,0.0552 -6.09091,-0.0162 -7.84451,-0.24581 z m 12.68018,-15.96439 c 0,-0.26644 1.26028,-5.64785 1.34278,-5.7337 0.2205,-0.22943 7.8294,-4.20087 11.12248,-5.80536 8.04481,-3.91966 21.41441,-9.42513 21.83232,-8.99034 0.2747,0.28582 -12.55084,17.49863 -13.18826,17.69962 -1.86196,0.58707 -13.09163,2.41436 -17.24079,2.8054 -3.05849,0.28823 -3.86853,0.29335 -3.86853,0.0244 z m -1.71934,-15.6459 c 0,-0.34525 9.85366,-9.57788 14.95414,-14.01164 9.56154,-8.3117 16.2459,-13.04009 23.10833,-16.34639 6.54746,-3.15453 11.55318,-4.50462 15.77878,-4.25565 3.78216,0.22285 5.6984,1.24951 9.88202,5.29458 4.21857,4.07883 5.70079,5.04537 9.07462,5.91744 9.19393,2.37644 25.01406,2.45435 44.19091,0.2176 2.69989,-0.31491 4.94847,-0.53139 4.99684,-0.48108 0.26524,0.27597 -18.07569,5.22093 -25.37987,6.84274 -11.75651,2.61041 -19.28422,3.68255 -26.00512,3.70381 -4.81569,0.0153 -5.42729,-0.11936 -11.60558,-2.55421 -5.63779,-2.22184 -6.95466,-2.54952 -10.20861,-2.54022 -5.15748,0.0147 -12.07351,1.79313 -21.81421,5.60933 -7.05864,2.76542 -16.76136,7.28009 -23.90967,11.12518 -1.68442,0.90604 -3.06258,1.57138 -3.06258,1.47851 z m 7.59986,-15.79806 c 0.26733,-1.82172 0.56846,-4.58414 0.92481,-8.48366 0.52763,-5.77384 0.52756,-17.58646 -1.4e-4,-22.02542 C 141.91011,113.55701 138.2753,105.93087 130.35183,99.294372 124.67235,94.537389 117.63349,90.615755 105.20122,85.281967 88.619655,78.168001 84.489406,76.182525 79.204684,72.785015 68.833922,66.117719 63.619584,57.937104 63.575682,48.265145 63.538152,39.996097 67.348749,31.641328 74.780135,23.699288 81.470375,16.549327 89.357186,11.692713 97.46417,9.7307034 c 6.05985,-1.4665706 13.77919,-1.5563781 20.95453,-0.2437868 9.65919,1.7669604 19.58618,5.9331904 27.83193,11.6807054 9.26334,6.456802 19.16734,16.07963 26.92279,26.15849 12.99538,16.888547 21.00577,36.036726 22.62804,54.090498 0.3736,4.15775 0.16297,11.87003 -0.41711,15.27267 -0.7755,4.54898 -2.77701,11.56526 -4.51085,15.81283 l -0.3735,0.91502 -2.8895,0.0498 c -6.31596,0.1091 -11.56643,1.7484 -20.46798,6.39055 -6.72927,3.50931 -13.49347,8.5183 -23.98026,17.7578 l -0.72427,0.63813 z"
       style="display:inline;fill:#000000;stroke:none;stroke-width:0.21922"
       id="path967" />
  </g>
</svg>
