<?xml version="1.0" encoding="UTF-8" standalone="no"?>
<svg xmlns="http://www.w3.org/2000/svg" width="228.83548mm" height="223.3913mm" viewBox="0 0 228.83548 223.3913" version="1.1">
	<style type="text/css">
		.primary { fill: #2a2; }
	</style>
	<g class="primary">
		<path
			d="m 51.8556,131.10785 c 11.067989,7.6198 15.001931,22.2998 22.282689,33.5937 9.589424,14.8751 15.930391,32.22629 28.183301,44.99703 5.57236,5.80786 8.85152,13.65277 19.91591,13.65276 5.53221,1e-5 16.59659,-5.4611 22.1288,-17.47553 29.18215,-63.37582 26.68128,-104.02185 53.59993,-149.667616 7.23092,-12.261428 23.68818,-18.559772 28.21538,-32.05545 2.27817,-6.791256 3.91038,-16.8513764 -1.59845,-21.4300211 -7.33938,-6.1000964 -19.87704,-1.0471022 -28.45906,3.1274112 -12.7884,6.2206049 -20.48409,16.9892989 -29.84577,30.4857739 -27.44424,39.565624 -44.57,146.226592 -44.57,146.226592 0,0 -16.60494,-49.42614 -34.015278,-67.73531 C 78.619713,105.28543 66.484351,95.908463 53.329286,95.347254 33.980304,94.521807 0.52916667,119.59035 0.52916667,119.59035 c 0,0 36.88389033,1.57448 51.32643333,11.5175 z"
		/>
	</g>
</svg>
