<?xml version="1.0" encoding="UTF-8" standalone="no"?>
<svg
   xmlns:dc="http://purl.org/dc/elements/1.1/"
   xmlns:cc="http://creativecommons.org/ns#"
   xmlns:rdf="http://www.w3.org/1999/02/22-rdf-syntax-ns#"
   xmlns:svg="http://www.w3.org/2000/svg"
   xmlns="http://www.w3.org/2000/svg"
   xmlns:sodipodi="http://sodipodi.sourceforge.net/DTD/sodipodi-0.dtd"
   xmlns:inkscape="http://www.inkscape.org/namespaces/inkscape"
   width="1000"
   height="1000"
   viewBox="0 0 264.58333 264.58334"
   version="1.1"
   id="svg2206"
   inkscape:version="1.0 (4035a4fb49, 2020-05-01)"
   sodipodi:docname="ALL.svg">
  <defs
     id="defs2200">
    <rect
       id="rect836"
       height="13.229167"
       width="148.16667"
       y="71.4375"
       x="31.75" />
  </defs>
  <sodipodi:namedview
     units="px"
     id="base"
     pagecolor="#ffffff"
     bordercolor="#666666"
     borderopacity="1.0"
     inkscape:pageopacity="0.0"
     inkscape:pageshadow="2"
     inkscape:zoom="1.0543273"
     inkscape:cx="717.6149"
     inkscape:cy="517.4209"
     inkscape:document-units="px"
     inkscape:current-layer="layer1"
     inkscape:document-rotation="0"
     showgrid="true"
     inkscape:window-width="2560"
     inkscape:window-height="1418"
     inkscape:window-x="1272"
     inkscape:window-y="-8"
     inkscape:window-maximized="1">
    <inkscape:grid
       type="xygrid"
       id="grid17" />
  </sodipodi:namedview>
  <metadata
     id="metadata2203">
    <rdf:RDF>
      <cc:Work
         rdf:about="">
        <dc:format>image/svg+xml</dc:format>
        <dc:type
           rdf:resource="http://purl.org/dc/dcmitype/StillImage" />
        <dc:title></dc:title>
      </cc:Work>
    </rdf:RDF>
  </metadata>
  <g
     id="layer4"
     inkscape:label="Contours"
     style="display:none"
     inkscape:groupmode="layer">
    <path
       sodipodi:nodetypes="cccccccccccccc"
       id="path840"
       d="m 21.166667,29.104167 21.166667,60.854167 -23.812501,55.562496 31.750001,39.6875 18.520833,55.5625 31.750003,-23.8125 87.3125,23.8125 60.85416,-23.8125 7.9375,-50.27083 L 232.83333,95.250001 246.0625,44.979167 174.625,5.2916667 127,29.104167 Z"
       style="display:inline;fill:none;fill-rule:evenodd;stroke:#000000;stroke-width:0.264583px;stroke-linecap:butt;stroke-linejoin:miter;stroke-opacity:1" />
    <path
       sodipodi:nodetypes="cccccccccccccccc"
       id="path1507"
       d="m 50.270834,71.4375 -10e-7,-7.937501 L 87.312499,58.208333 127,63.499999 l 7.9375,-21.166666 5.29166,21.166666 44.97917,-5.291666 34.39583,5.291666 1e-5,7.937501 h -79.375 l 5.29166,113.77083 50.27083,13.22917 H 71.4375 L 121.70833,185.20833 127,71.4375 Z"
       style="fill:none;fill-rule:evenodd;stroke:#000000;stroke-width:0.264583px;stroke-linecap:butt;stroke-linejoin:miter;stroke-opacity:1" />
    <path
       sodipodi:nodetypes="cccccccc"
       id="path1509"
       d="M 70.114584,71.437499 42.333334,142.875 v 3.96874 l 31.75,11.90625 31.750006,-11.90625 V 142.875 l -27.781256,-71.437501 -7.937497,10e-7"
       style="fill:none;fill-rule:evenodd;stroke:#000000;stroke-width:0.396874px;stroke-linecap:butt;stroke-linejoin:miter;stroke-opacity:1" />
    <path
       id="path1511"
       d="M 74.083334,75.406248 50.270835,142.875 h 47.624999 z"
       style="fill:none;fill-rule:evenodd;stroke:#000000;stroke-width:0.396874px;stroke-linecap:butt;stroke-linejoin:miter;stroke-opacity:1" />
    <path
       style="display:inline;fill:none;fill-rule:evenodd;stroke:#000000;stroke-width:0.396875px;stroke-linecap:butt;stroke-linejoin:miter;stroke-opacity:1"
       d="M 191.29375,71.437504 163.51249,142.875 v 3.96874 l 31.75001,11.90625 31.75,-11.90625 V 142.875 l -27.78125,-71.437496 -7.9375,10e-7"
       id="path1509-7"
       sodipodi:nodetypes="cccccccc" />
    <path
       style="display:inline;fill:none;fill-rule:evenodd;stroke:#000000;stroke-width:0.396875px;stroke-linecap:butt;stroke-linejoin:miter;stroke-opacity:1"
       d="M 195.2625,75.406253 171.44999,142.875 h 47.625 z"
       id="path1511-0" />
  </g>
  <g
     inkscape:groupmode="layer"
     id="layer1"
     inkscape:label="Pleins"
     style="display:inline">
    <path
       d="M 173.2927,2.2092813 147.53746,15.269279 121.78166,28.329275 63.981673,28.467854 6.181116,28.605862 17.675934,62.031153 29.170192,95.456443 16.265229,125.91171 C 9.1675372,142.66204 3.3602705,156.50234 3.3602705,156.6681 c 0,0.16573 7.7628015,10.11504 17.2504045,22.1092 l 17.250407,21.80753 10.054795,30.51458 c 6.464977,19.61937 10.155725,30.43584 10.336146,30.29445 0.154335,-0.12095 7.924668,-6.01383 17.267885,-13.09535 L 92.507567,235.42328 140.14677,248.5637 187.7854,261.7041 220.89298,248.59164 254,235.47917 l 4.32402,-27.69398 4.32345,-27.69397 -12.99179,-39.46342 -12.99123,-39.46399 7.19957,-27.627244 7.20011,-27.626677 L 212.1784,24.059586 Z M 130.1303,42.924469 c 0.006,-0.0041 0.0115,-0.0033 0.0146,0.0029 0.10059,0.196186 1.44962,5.503341 2.99733,11.793975 l 2.81408,11.437548 0.71606,-0.143139 c 0.39383,-0.07874 11.40604,-1.40798 24.47139,-2.954055 l 23.75475,-2.811484 18.13731,2.810343 c 9.97546,1.545545 18.47899,2.879146 18.89679,2.963747 l 0.75949,0.153978 -0.075,4.476703 -0.075,4.476703 -10.97947,0.13858 -10.98005,0.138577 15.01707,39.048265 15.01651,39.04825 0.002,2.49555 0.002,2.49498 -17.36712,6.58047 -17.36768,6.5799 -17.40151,-6.58333 -17.40151,-6.58274 -0.003,-2.4927 -0.003,-2.49213 15.01651,-39.04825 15.0165,-39.048265 -27.52058,-0.07071 c -15.13638,-0.0388 -27.54114,-0.0388 -27.56625,0 -0.15656,0.241915 5.74522,124.996255 5.91854,125.108165 0.11794,0.0762 12.41837,3.37795 27.33395,7.33724 14.91558,3.95929 27.11913,7.29278 27.11913,7.40795 0,0.11518 -30.49551,0.20928 -67.76739,0.20928 -37.271875,0 -67.766829,-0.0974 -67.766829,-0.21669 0,-0.11933 12.135539,-3.4453 26.968027,-7.39085 14.832492,-3.94554 27.110222,-7.26238 27.283772,-7.37088 0.22252,-0.13909 1.16127,-18.58284 3.18339,-62.54894 1.57725,-34.29363 2.81145,-62.409622 2.74248,-62.479385 -0.069,-0.06976 -11.94815,-0.09474 -26.397998,-0.05589 l -26.272264,0.07071 15.135473,39.324835 15.135479,39.32543 -0.06543,2.1893 -0.06479,2.18931 -17.386285,6.61126 -17.386854,6.61126 -17.451128,-6.58502 -17.450565,-6.58503 0.0045,-2.4927 0.005,-2.49213 L 43.866066,114.4571 58.889337,75.408838 48.23801,75.33642 37.586116,75.264002 V 70.719407 66.17541 l 0.75328,-0.153405 c 0.414131,-0.08438 9.538439,-1.417289 20.275922,-2.962037 l 19.523205,-2.808633 20.999881,2.821179 c 11.550146,1.551729 21.246746,2.880404 21.547926,2.952344 0.49365,0.117911 0.97801,-1.031363 4.91209,-11.661671 2.32529,-6.283192 4.31825,-11.309073 4.53206,-11.438691 z m 65.71618,37.60944 c -0.14174,0 -25.48458,72.533291 -25.47163,72.901831 0.004,0.11424 11.46645,0.20815 25.47163,0.20815 14.00519,0 25.46705,-0.094 25.47106,-0.20815 0.0129,-0.36854 -25.32931,-72.901831 -25.47106,-72.901831 z m -132.236372,0.0034 c -0.14564,0.0053 -25.476134,72.488101 -25.476134,72.899561 0,0.1139 11.514599,0.207 25.588336,0.207 h 25.588902 l -0.633749,-1.7308 C 88.328838,150.96112 82.579602,134.51072 75.901619,115.35696 69.223636,96.203209 63.692293,80.534353 63.610108,80.537331 Z"
       style="fill:#000000;stroke-width:0.275368"
       id="path1535" />
  </g>
</svg>
