<?xml version="1.0" encoding="UTF-8" standalone="no"?>
<svg
   xmlns:dc="http://purl.org/dc/elements/1.1/"
   xmlns:cc="http://creativecommons.org/ns#"
   xmlns:rdf="http://www.w3.org/1999/02/22-rdf-syntax-ns#"
   xmlns:svg="http://www.w3.org/2000/svg"
   xmlns="http://www.w3.org/2000/svg"
   xmlns:sodipodi="http://sodipodi.sourceforge.net/DTD/sodipodi-0.dtd"
   xmlns:inkscape="http://www.inkscape.org/namespaces/inkscape"
   width="1000"
   height="1000"
   viewBox="0 0 264.58333 264.58334"
   version="1.1"
   id="svg2206"
   inkscape:version="1.0 (4035a4fb49, 2020-05-01)"
   sodipodi:docname="FNU.svg">
  <defs
     id="defs2200" />
  <sodipodi:namedview
     units="px"
     id="base"
     pagecolor="#ffffff"
     bordercolor="#666666"
     borderopacity="1.0"
     inkscape:pageopacity="0.0"
     inkscape:pageshadow="2"
     inkscape:zoom="0.66245342"
     inkscape:cx="418.02838"
     inkscape:cy="222.76923"
     inkscape:document-units="px"
     inkscape:current-layer="layer1"
     inkscape:document-rotation="0"
     showgrid="true"
     inkscape:window-width="2560"
     inkscape:window-height="1418"
     inkscape:window-x="1272"
     inkscape:window-y="-8"
     inkscape:window-maximized="1">
    <inkscape:grid
       type="xygrid"
       id="grid17" />
  </sodipodi:namedview>
  <metadata
     id="metadata2203">
    <rdf:RDF>
      <cc:Work
         rdf:about="">
        <dc:format>image/svg+xml</dc:format>
        <dc:type
           rdf:resource="http://purl.org/dc/dcmitype/StillImage" />
        <dc:title />
      </cc:Work>
    </rdf:RDF>
  </metadata>
  <g
     id="layer4"
     inkscape:label="Contours"
     style="display:none"
     inkscape:groupmode="layer">
    <path
       sodipodi:nodetypes="cccccccccccccccccc"
       style="display:inline;fill:none;fill-rule:evenodd;stroke:#000000;stroke-width:0.264583px;stroke-linecap:butt;stroke-linejoin:miter;stroke-opacity:1"
       d="m 76.729167,2.6458333 -63.5,21.1666667 23.8125,82.02083 L 34.395834,150.8125 0,171.97917 l 10.583333,79.375 34.395834,-10.58334 23.8125,23.8125 74.083333,-7.9375 79.375,7.9375 34.39583,-26.45833 7.9375,-39.6875 L 235.47917,127 259.29167,89.958334 251.35417,7.9375 214.3125,23.8125 145.52083,0 Z"
       id="path834" />
    <path
       id="path849"
       d="M 111.125,145.52083 103.1875,158.75 89.958332,169.33333 h -2.645833 v 2.64583 h 2.645833 l 2.645834,13.22917 13.229164,7.9375 V 206.375 l 5.29167,13.22916 -2.64583,13.22917 42.33333,13.22917 -5.29167,-13.22917 31.75,10.58333 -2.64583,-10.58333 21.16666,13.22917 -7.9375,-15.875 -5.29166,-26.45834 v -10.58333 l 10.58333,-23.8125 13.22917,31.75 v 29.10417 l -2.64584,21.16666 h 13.22917 l 10.58333,-23.8125 2.64584,-23.8125 -7.9375,-26.45833 -5.29167,-23.8125 -5.29167,-13.22917 -2.64583,-18.52083 -7.9375,-7.9375 H 174.625 l -5.29167,-2.64583 -2.64583,-10.58333 5.29166,-10.583338 7.9375,-21.166666 -2.64583,-34.395833 -15.875,-10.583333 -18.52083,-2.645834 -29.10417,7.9375 -15.874998,13.229167 v 15.875 l 2.645838,5.291666 v 5.291667 l 5.29166,7.9375 v 5.291666 L 119.0625,103.1875 v 2.64583 l 5.29167,2.64584 10.58333,-2.64584 5.29166,5.29167 -2.64583,7.9375 -15.875,5.29167 -7.9375,7.93749 z"
       style="display:none;fill:none;fill-rule:evenodd;stroke:#000000;stroke-width:0.264583px;stroke-linecap:butt;stroke-linejoin:miter;stroke-opacity:1" />
    <path
       id="path851"
       d="M 177.27083,39.6875 182.5625,42.333333 190.5,39.6875 209.02083,50.270833 222.25,84.666666 209.02083,63.499999 214.3125,103.1875 206.375,82.020832 l 2.64583,26.458338 -5.29167,-13.229171 -2.64583,-18.520833 v 23.812504 l 10.58333,21.16666 -13.22916,-15.875 2.64583,7.9375 L 190.5,95.249999 l 2.64583,13.229171 -7.9375,-23.812504 2.64583,-13.229167 -5.29166,18.520833 v 7.9375 l -2.64584,-10.583333 2.64584,-15.875 v -5.291667 l -5.29167,10.583334 -5.29167,10.583333 -7.9375,-15.875 z"
       style="display:none;fill:none;fill-rule:evenodd;stroke:#000000;stroke-width:0.264583px;stroke-linecap:butt;stroke-linejoin:miter;stroke-opacity:1" />
    <path
       sodipodi:nodetypes="cacaacacaacaaaacaaacaaccaaaaaaaaccaaaaaaaacaaaaaacacaac"
       style="display:none;fill:none;fill-rule:evenodd;stroke:#000000;stroke-width:0.264583px;stroke-linecap:butt;stroke-linejoin:miter;stroke-opacity:1"
       d="m 111.125,145.52083 c 0,0 -4.45629,9.44403 -7.9375,13.22917 -3.678359,3.99949 -13.229166,9.525 -13.229166,9.525 0,0 -1.63785,0.43144 -2.116668,1.05833 -0.545937,0.71477 -0.893025,1.82331 -0.529167,2.64583 0.416089,0.94059 2.645835,1.58751 2.645835,1.58751 0,0 0.311216,8.41891 2.645832,11.64166 3.016936,4.16463 13.229164,7.9375 13.229164,7.9375 0,0 -0.83391,8.89901 0,13.22917 0.89815,4.66372 4.85744,8.49964 5.29167,13.22916 0.41116,4.47822 -2.64583,13.22917 -2.64583,13.22917 0,0 15.48636,7.11305 23.8125,7.9375 7.07586,0.70065 14.06913,-3.07441 21.16666,-2.64583 7.25948,0.43837 13.89397,5.29167 21.16667,5.29167 3.63635,0 6.9687,-3.04262 10.58333,-2.64584 3.92063,0.43038 10.58333,5.29167 10.58333,5.29167 0,0 -6.01746,-10.27896 -7.9375,-15.875 -2.91891,-8.50728 -4.4054,-17.50801 -5.29166,-26.45834 -0.34762,-3.51061 -0.73234,-7.1324 0,-10.58333 1.80317,-8.49692 10.58333,-23.8125 10.58333,-23.8125 0,0 10.98064,20.50737 13.22917,31.75 1.9026,9.513 0.80018,19.43584 0,29.10417 -0.44248,5.34638 -2.64584,15.87499 -2.64584,15.87499 H 222.25 c 0,0 4.05084,-12.22122 5.29166,-18.52083 1.5434,-7.83579 3.36682,-15.85876 2.64584,-23.8125 -0.83125,-9.17017 -5.61432,-17.54846 -7.9375,-26.45833 -2.05153,-7.86806 -2.89196,-16.04355 -5.29167,-23.8125 -1.40168,-4.53787 -4.06517,-8.64085 -5.29167,-13.22917 -1.61047,-6.02475 0.14312,-12.94292 -2.64583,-18.52083 -1.67337,-3.34674 -4.48055,-6.50559 -7.9375,-7.9375 -8.1481,-3.37505 -17.87481,2.02629 -26.45833,0 -1.91933,-0.45309 -5.29167,-2.64583 -5.29167,-2.64583 l -2.64583,-10.58333 c 0,0 3.7151,-6.967955 5.29166,-10.583338 3.01201,-6.907178 6.87854,-13.70611 7.9375,-21.166666 1.61601,-11.385031 3.16522,-24.473024 -2.64583,-34.395833 -3.21389,-5.487972 -9.93405,-8.313508 -15.875,-10.583333 -5.82558,-2.225746 -12.29659,-3.033341 -18.52083,-2.645834 -10.03628,0.624836 -20.1871,3.289564 -29.10417,7.9375 -6.10823,3.183855 -12.95333,6.991281 -15.874998,13.229167 -2.244489,4.792077 -1.215778,10.724891 0,15.875 0.453094,1.919333 2.645838,5.291666 2.645838,5.291666 0,0 -0.51115,3.603463 0,5.291667 0.92148,3.043452 4.37018,4.894048 5.29166,7.9375 0.51115,1.688204 -0.48627,3.59613 0,5.291666 2.29375,7.997828 9.28451,13.840945 13.22917,21.166668 0.70028,1.30051 0.7599,3.02631 1.84438,4.02911 0.89849,0.83083 2.22527,1.19767 3.44729,1.26256 3.63123,0.19281 10.58333,-2.64584 10.58333,-2.64584 0,0 4.71854,2.86389 5.29166,5.29167 0.64077,2.71435 -2.64583,7.9375 -2.64583,7.9375 0,0 -11.13015,2.35919 -15.875,5.29167 -3.18294,1.96716 -6.17192,4.63847 -7.9375,7.93749 -2.12197,3.96494 -2.64583,13.22917 -2.64583,13.22917 z"
       id="path853" />
    <path
       sodipodi:nodetypes="ccaaccacccacacccccacacacccccc"
       style="display:none;fill:none;fill-rule:evenodd;stroke:#000000;stroke-width:0.264583px;stroke-linecap:butt;stroke-linejoin:miter;stroke-opacity:1"
       d="m 177.27083,39.6875 5.29167,2.645833 c 0,0 5.16212,-2.92065 7.9375,-2.645833 7.07586,0.700648 13.88916,5.188305 18.52083,10.583333 8.00169,9.320473 13.22917,34.395833 13.22917,34.395833 L 209.02083,63.499999 c 0,0 2.71845,12.250943 3.56802,18.460466 0.96231,7.033442 1.72365,21.227035 1.72365,21.227035 l -7.9375,-21.166668 2.64583,26.458338 c 0,0 -4.06517,-8.640852 -5.29167,-13.229171 -1.61047,-6.024756 -2.64583,-18.520833 -2.64583,-18.520833 0,0 -1.82366,16.087339 0,23.812504 1.81237,7.67733 10.58333,21.16666 10.58333,21.16666 l -13.22916,-15.875 v 10.58334 L 190.5,95.249999 187.85417,111.125 c 0,0 -2.20432,-17.605905 -2.64584,-26.458334 -0.0879,-1.761699 0,-5.291666 0,-5.291666 0,0 -2.20153,6.974228 -2.64583,10.583332 -0.32328,2.62601 0,7.9375 0,7.9375 0,0 -2.50073,-6.949879 -2.64584,-10.583333 -0.21407,-5.360386 2.64584,-15.875 2.64584,-15.875 v -5.291667 l -5.29167,10.583334 -5.29167,10.583333 -7.9375,-15.875 z"
       id="path855" />
    <path
       sodipodi:nodetypes="ssscsssssssscsssssscsssscsssssssssssssssssssssssssssssssssssssssssscccsssscscssssssssssssssssscssssssssscssssssssssscccsssssssssscss"
       d="m 176.89796,108.92626 c -2.75421,-3.29845 -5.10227,-5.99718 -5.21793,-5.99718 -0.1173,0 -0.23792,1.97736 -0.27279,4.47205 l -0.0625,4.47206 -3.67111,-9.78575 c -2.01911,-5.382168 -3.74091,-9.828896 -3.82622,-9.881622 -0.0853,-0.05272 -0.64455,2.883109 -1.24276,6.524075 -0.5982,3.640967 -1.16485,6.871437 -1.25921,7.178827 -0.39261,1.27899 -2.56554,-21.182321 -2.56554,-26.519718 0,-1.593683 -0.0925,-2.742335 -0.22078,-2.742335 -0.22918,0 -0.73455,1.555406 -1.72289,5.302594 -0.87687,3.324564 -1.28161,6.029328 -1.30685,8.733367 l -0.0229,2.448184 -0.55596,-1.729105 c -1.09036,-3.391146 -1.53329,-6.134859 -1.38217,-8.561721 0.1708,-2.742917 0.82106,-6.613176 1.87337,-11.150094 0.63708,-2.746722 0.80211,-3.941609 0.80211,-5.807718 0,-1.292225 -0.10123,-2.412066 -0.22496,-2.488536 -0.12374,-0.07647 -2.5747,4.559509 -5.44659,10.302176 l -5.22161,10.441215 -3.76283,-7.491579 c -2.06955,-4.120364 -3.76958,-7.647194 -3.77784,-7.837397 -0.0155,-0.355815 12.60007,-30.858288 12.90328,-31.198227 0.093,-0.104278 1.29762,0.372734 2.67692,1.060026 l 2.50781,1.249622 2.07493,-0.991301 c 2.7269,-1.302779 4.79242,-1.807591 6.5153,-1.592331 3.50243,0.437599 7.96343,2.298623 11.5197,4.805754 2.66397,1.878062 6.3688,5.58215 7.87843,7.876839 2.43056,3.694564 5.12149,9.823531 7.38919,16.829965 1.27514,3.939752 3.80417,13.229405 3.64494,13.388634 -0.0526,0.05264 -2.83694,-4.308745 -6.18734,-9.69196 -3.3504,-5.383213 -6.18311,-9.791827 -6.29491,-9.79692 -0.26622,-0.01212 -0.15493,0.663699 1.21338,7.368257 1.5847,7.76488 2.01825,10.445787 2.55394,15.792502 0.4456,4.447564 1.20613,14.673662 1.09912,14.77871 -0.0287,0.02819 -1.70342,-4.348888 -3.72156,-9.726838 -3.22041,-8.581784 -4.054,-10.539825 -4.054,-9.522486 0,0.140581 0.52279,5.457584 1.16176,11.815556 0.63898,6.357972 1.13177,11.804495 1.0951,12.103375 -0.068,0.55462 -1.59276,-2.83124 -3.26546,-7.251404 -1.52127,-4.019997 -2.56479,-9.518697 -3.49601,-18.421693 -0.5533,-5.289891 -0.69543,-5.229773 -1.17314,0.496242 -0.18881,2.263089 -0.34796,6.604619 -0.35367,9.647846 -0.0119,6.311907 0.30054,9.024074 1.42842,12.401869 0.82968,2.4847 3.40875,7.89246 5.61428,11.77193 0.85453,1.50309 1.51127,2.7753 1.45942,2.82715 -0.0519,0.0519 -2.34771,-2.60446 -5.10191,-5.90291 z m 0.55717,134.00545 c 5.3e-4,-0.0966 0.26268,-1.51225 0.58265,-3.14595 1.77229,-9.0489 2.61975,-17.19957 2.80815,-27.00817 0.21539,-11.21336 -0.60132,-15.82683 -4.54938,-25.69868 -2.84181,-7.10579 -9.52194,-21.01194 -9.89874,-20.60643 -0.37721,0.40594 -3.59761,6.51348 -5.21271,9.88597 -3.22271,6.72934 -5.10503,11.71618 -5.61973,14.88842 -0.80394,4.95484 0.7605,18.61193 3.34533,29.20374 1.53574,6.29299 4.05525,12.41558 8.03384,19.52284 0.70487,1.25915 1.25565,2.3153 1.22395,2.347 -0.0317,0.0317 -0.62684,-0.30602 -1.32254,-0.7505 -2.11434,-1.35084 -5.70018,-3.07302 -7.19684,-3.45645 -1.91624,-0.49092 -3.05823,-0.30237 -6.83822,1.12901 -3.04682,1.15376 -3.20435,1.18754 -5.4431,1.16732 -2.73094,-0.0247 -4.96951,-0.56745 -10.25847,-2.4874 -6.40871,-2.32643 -7.4168,-2.54561 -11.64354,-2.53157 -3.5285,0.0117 -3.90411,0.0598 -8.64553,1.10724 -2.72622,0.60224 -5.60208,1.15611 -6.39078,1.23081 l -1.43402,0.13583 -3.06166,-1.25641 c -5.22375,-3.52821 -2.92406,-3.78594 -11.924519,-3.30344 -4.725265,1.26225 -13.02866,1.46788 -13.05724,1.43743 -0.02858,-0.0304 2.090658,-7.64739 2.455177,-9.0367 1.42648,-5.43682 1.65648,-8.68148 0.795057,-11.21604 -0.189354,-0.55714 -1.229373,-2.77668 -2.311151,-4.93229 -2.610078,-5.20102 -2.742496,-5.76225 -2.747,-11.64265 -0.0019,-2.59942 0.07411,-5.3577 0.169104,-6.1295 l 0.172722,-1.40329 -1.563386,-0.64996 c -2.305052,-0.95829 -6.665719,-3.20006 -8.249261,-4.24083 -1.724935,-1.1337 -3.468433,-2.83555 -4.027371,-3.93116 -0.866076,-1.69765 -1.654701,-5.26727 -1.975072,-8.93995 -0.164629,-1.88726 -0.167603,-1.89413 -0.928624,-2.14529 -1.216094,-0.40135 -1.94501,-1.09295 -1.94501,-1.84544 0,-1.28397 0.463301,-1.83024 2.327034,-2.74377 2.131388,-1.04471 8.345781,-5.14985 10.973861,-7.24917 3.142128,-2.50995 5.520417,-5.81988 8.944271,-12.44801 1.589709,-3.07746 1.692331,-3.36848 1.840315,-5.21886 0.192307,-2.40464 0.914222,-6.73573 1.41574,-8.49369 0.714317,-2.50387 1.896012,-4.38892 4.233648,-6.75355 2.422544,-2.45051 4.690539,-4.03422 7.43481,-5.1916 2.050765,-0.86491 6.722775,-2.35844 9.631455,-3.07896 3.98478,-0.98709 3.53797,-0.71094 4.57084,-2.82495 1.65938,-3.39629 2.0772,-5.61535 1.32561,-7.04044 -0.40913,-0.77578 -2.66607,-2.96175 -4.06841,-3.9405 l -1.05381,-0.7355 -1.94331,0.71728 c -4.93029,1.81976 -8.814292,2.34055 -10.819386,1.45075 -1.322023,-0.58668 -1.512954,-0.83171 -2.307312,-2.96101 C 92.469936,99.885331 90.897014,97.385306 87.46023,92.831319 82.700554,86.524409 80.837162,83.474235 79.722549,80.165559 79.327714,78.993508 79.278073,78.429885 79.39731,76.47269 79.57102,73.6214 79.33919,73.050152 76.796006,70.062937 75.830579,68.928949 74.780966,67.44751 74.463537,66.770856 73.937951,65.650483 73.895189,65.331242 73.984861,63.19737 l 0.09847,-2.343203 -1.230236,-2.334913 c -1.61154,-3.058615 -2.353408,-6.329342 -2.529522,-11.152116 -0.147424,-4.037023 0.162493,-5.655842 1.604113,-8.378894 2.274697,-4.296635 7.113989,-8.164949 15.583913,-12.457078 12.640011,-6.405319 28.167271,-9.218705 39.649601,-7.184117 4.08662,0.72412 9.77894,2.666845 13.85991,4.730239 2.53265,1.280536 6.04833,3.784473 7.51467,5.352095 1.56705,1.675294 3.17403,4.564515 4.14112,7.445412 1.95957,5.837467 2.30076,13.953243 1.02263,24.325193 -0.81332,6.600087 -1.40493,9.292823 -2.90572,13.225576 -1.17035,3.066838 -6.02903,13.668859 -8.66011,18.897071 l -2.30097,4.572227 1.33863,5.386148 1.33863,5.38615 1.65952,0.94951 c 3.01555,1.72536 3.72241,1.91393 7.57868,2.02174 2.97855,0.0833 4.1507,-0.002 8.45082,-0.61756 11.11372,-1.58994 15.41492,-0.56408 19.72119,4.70361 2.97554,3.63988 3.7915,6.55422 4.09886,14.63977 0.22742,5.98231 0.74977,8.13547 3.37358,13.90598 2.87736,6.32816 3.46711,8.39069 5.94499,20.79141 1.83085,9.16264 2.53019,11.76177 4.86959,18.09798 3.70275,10.02883 4.67677,13.52944 5.11524,18.38403 0.74168,8.21161 -1.89073,22.84032 -7.02198,39.02229 l -0.76761,2.42075 -9.03932,0.0603 c -4.97162,0.0332 -9.03891,-0.0187 -9.03842,-0.11527 z"
       style="display:inline;fill:#000000;stroke-width:0.230548"
       id="path859" />
  </g>
  <g
     inkscape:groupmode="layer"
     id="layer1"
     inkscape:label="Pleins"
     style="display:inline">
    <path
       sodipodi:nodetypes="sscccsssssssscssscsssssscscsscsscssscccssscssscccssscsssssssssssssssssssssssssssscsssssssssssssssssssssssaaascsssssssssscsssssssssssssssscssssssssssssssssssssssssssss"
       d="m 562.42035,420.89199 c -5.63574,-0.89607 -8.30838,-1.96783 -16.84873,-6.75659 l -6.64628,-3.72671 -5.01916,-20.1103 -5.01916,-20.11031 16.60867,-24.99076 c 17.38121,-26.15318 21.53492,-55.13399 25.76911,-66.85417 3.57971,-9.9086 16.92986,-40.48017 18.23387,-40.48017 1.71909,0 0.0363,22.61258 -2.78146,35.09982 -7.33384,32.50117 -8.19057,47.27809 -3.72423,64.23528 4.48679,17.03477 4.7747,17.1955 5.46293,3.04976 0.38522,-7.91775 1.37624,-15.71583 2.8238,-22.2197 2.72193,-12.22956 6.50273,-25.41207 7.60976,-26.53292 0.50996,-0.51634 0.81814,2.10648 0.81906,6.97088 0.004,19.85679 7.31946,97.26704 9.58383,101.41036 0.79881,1.46166 1.31661,-0.94894 5.60234,-26.08124 1.67535,-9.82459 3.36781,-19.40963 3.76101,-21.30008 l 0.71491,-3.43719 2.27338,6.05127 c 3.14647,8.37526 22.24629,58.88223 22.92281,60.61637 0.48442,1.24173 -0.16898,1.36061 -5.41508,0.98525 -6.4582,-0.46208 -22.73482,0.85784 -35.95924,2.91604 -9.87964,1.53764 -34.29362,2.29517 -40.77214,1.26511 z M 215.07401,954.19401 169.99639,909.11008 105.41954,928.98572 C 69.902285,939.91738 40.792538,948.77049 40.73122,948.65948 39.959816,947.26216 1.1271487,650.5249 1.6567513,650.07452 2.0597098,649.73182 31.250785,631.72988 66.525809,610.0702 l 64.136401,-39.38124 0.49881,-6.30049 c 0.27434,-3.46527 2.55986,-41.98271 5.07893,-85.59431 L 140.82007,399.50035 96.067388,245.46639 C 69.207242,153.01663 51.637274,91.135985 52.12151,90.690973 52.565252,90.283176 106.64769,72.101489 172.30471,50.28723 L 291.6811,10.624942 420.82585,5.7587643 549.97059,0.89258646 679.61993,45.781648 c 75.70308,26.211012 130.37447,44.702708 131.39205,44.441195 0.9585,-0.246325 32.32748,-13.571609 69.70885,-29.611742 l 67.96612,-29.163879 0.66232,3.219255 c 1.06236,5.16351 29.52771,301.871553 29.19127,304.274323 -0.16782,1.19812 -20.37955,33.39712 -44.91506,71.55333 l -44.61009,69.37493 55.02215,134.95911 55.02224,134.95912 -14.65289,73.62997 c -8.05904,40.49648 -14.88362,74.27416 -15.16577,75.06161 -0.28206,0.78736 -29.50993,23.73551 -64.95078,50.99585 l -64.43789,49.56429 -149.9168,-14.9833 C 553.1652,970.38633 539.36937,969.14595 532.61229,969.9103 c -4.07361,0.46078 -65.83129,7.08033 -137.23928,14.71005 -71.408,7.62972 -131.04517,14.04895 -132.52705,14.26487 -2.55256,0.37198 -5.06608,-1.97947 -47.77195,-44.69121 z M 727.29788,918.6926 c 11.76349,-0.5642 11.99017,-0.61317 12.80895,-2.76665 5.39079,-14.17887 19.14182,-66.58411 22.90224,-87.28053 7.14403,-39.31901 7.91604,-60.8894 3.04065,-84.95765 -1.64896,-8.14038 -9.10245,-31.15952 -18.6214,-57.5098 -6.52676,-18.06728 -9.48614,-29.41971 -16.5511,-63.49116 -9.79622,-47.2433 -10.97499,-51.35269 -22.26065,-77.60422 -10.49849,-24.42048 -11.44018,-28.51482 -13.09161,-56.92007 -1.59442,-27.42472 -4.51078,-37.32755 -14.80951,-50.28742 -8.19075,-10.30719 -17.01194,-16.45732 -27.53698,-19.19875 -2.71646,-0.70754 -4.97769,-1.39047 -5.02497,-1.51761 -0.45844,-1.23315 0.60667,-26.80767 1.11648,-26.80767 0.37367,0 9.05872,9.86222 19.30009,21.91606 10.24138,12.05383 18.76048,21.49667 18.93134,20.98409 0.17086,-0.51256 -1.68695,-4.47556 -4.12846,-8.80663 -7.39475,-13.11776 -18.93928,-37.52353 -21.77244,-46.02813 -4.11104,-12.34053 -5.24403,-22.2194 -5.24988,-45.77523 -0.005,-20.16613 1.22736,-44.66994 2.50901,-49.88752 0.45221,-1.84097 1.3394,3.23909 3.04348,17.42721 4.15161,34.56605 7.26484,49.42826 14.05129,67.07909 4.84108,12.59113 10.06943,23.96242 11.01757,23.96242 0.41674,0 0.54376,-2.05859 0.28225,-4.57464 -0.38821,-3.73518 -2.63567,-27.24015 -7.81092,-81.69005 l -0.45551,-4.79249 1.83725,3.92113 c 1.0105,2.15661 7.29258,18.21896 13.96019,35.6941 6.66762,17.47515 12.51215,32.16219 12.98783,32.63788 0.57229,0.57228 0.71388,-0.89101 0.41853,-4.32513 -0.24548,-2.85451 -1.04994,-13.42437 -1.78766,-23.48859 -2.67117,-36.44073 -4.5349,-49.95954 -12.23567,-88.75261 -2.65001,-13.34956 -4.65542,-24.4347 -4.45647,-24.63364 0.47592,-0.47592 2.04701,1.92742 23.71064,36.27084 22.51536,35.69368 22.52056,35.70167 23.21343,35.715 1.05874,0.0204 -5.34398,-24.5472 -12.03303,-46.17132 -7.8986,-25.53436 -20.44847,-54.80235 -29.05019,-67.74902 -4.59445,-6.91522 -14.81522,-17.79796 -23.39672,-24.91207 -13.28324,-11.01189 -31.02668,-19.79494 -46.09744,-22.81837 -6.48748,-1.30149 -7.81722,-1.31679 -13.50609,-0.15538 -3.47058,0.70852 -9.89094,2.90131 -14.26748,4.87286 -4.37653,1.97155 -8.38699,3.58463 -8.91213,3.58463 -0.52516,0 -3.05928,-1.03213 -5.6314,-2.29361 -4.29185,-2.10492 -4.76464,-2.6372 -5.74697,-6.47002 -0.58871,-2.29703 -3.20843,-8.52239 -5.82159,-13.83413 -5.63697,-11.4582 -11.9345,-18.66537 -23.63628,-27.05045 C 533.09744,89.144229 504.946,77.639376 482.04776,73.034889 c -8.83078,-1.775735 -12.53249,-2.011358 -31.77904,-2.022824 -27.4703,-0.01636 -44.08135,2.332111 -70.79789,10.009426 -32.74877,9.410749 -41.01586,12.057045 -58.44038,23.849459 -13.75745,9.31064 -25.52252,21.94435 -34.63276,35.83532 -6.51226,9.92966 -11.62359,21.20958 -13.62958,32.91359 -2.71631,15.84843 -2.98985,37.0141 2.56104,48.17054 l 4.31178,8.66601 -0.40108,8.49261 c -0.36936,7.82109 -0.22237,8.85458 1.85891,13.07041 1.243,2.51779 5.59761,8.82934 9.67692,14.02567 4.13023,5.26119 7.80068,10.87299 8.28292,12.66385 0.47627,1.76879 0.83424,7.3522 0.79547,12.40757 -0.0642,8.37741 0.17401,9.80277 2.68983,16.09105 4.33146,10.82647 12.55868,23.80189 28.54731,45.02281 9.97441,13.23855 18.12312,26.25626 21.17518,33.82771 1.71296,4.24948 3.77103,7.74731 5.33046,9.05948 6.98068,5.87385 19.9738,5.17814 41.99181,-2.24845 l 10.31516,-3.47927 3.19093,2.40054 c 5.2284,3.93336 14.16882,12.7661 15.47748,15.2911 1.80601,3.48458 1.48901,8.73601 -0.96944,16.05962 -2.96069,8.81971 -6.10737,14.8212 -8.64165,16.48173 -1.15694,0.75806 -7.32918,2.73252 -13.71608,4.38768 -16.35228,4.2377 -34.0299,10.35552 -41.52337,14.3703 -8.66072,4.64016 -15.02946,9.68995 -23.47998,18.61734 -11.98398,12.66025 -15.35567,21.61708 -19.20885,51.02787 -1.5668,11.9592 -1.89181,13.10528 -6.07884,21.43564 -13.03306,25.93008 -23.23534,40.22316 -35.90173,50.2972 -3.84068,3.05463 -11.49931,8.3917 -19.41767,13.64884 -7.91837,5.25714 -15.77407,11.11271 -20.97608,13.16926 -8.65854,3.42304 -8.65854,13.42304 -1.62987,18.3413 2.3213,1.62432 2.6779,1.83216 3.27466,8.27792 1.06282,11.47967 4.44551,26.29374 7.35221,32.19811 5.00625,10.16912 18.9345,19.81204 45.27352,31.34412 l 6.47613,2.83546 -0.22707,22.51865 c -0.28476,28.24022 -0.10453,29.10533 10.77,51.69847 5.67209,11.78443 8.48712,18.71496 9.18587,22.61532 1.76271,9.83936 -0.0345,20.94657 -8.32382,51.44388 -2.6134,9.61494 -4.75162,18.03995 -4.75162,18.72231 0,1.01278 1.39996,1.15847 7.62441,0.7932 12.21803,-0.71704 31.56017,-2.93596 37.52257,-4.3047 3.39882,-0.78021 10.15648,-1.2626 17.68832,-1.2626 13.87253,0 14.04102,0.0532 24.19032,7.64976 3.53362,2.64476 9.18812,5.96978 12.56557,7.38879 7.45466,3.13211 9.2198,3.02214 32.85561,-2.04743 19.99588,-4.28884 33.6863,-5.56765 46.18211,-4.31393 7.80439,0.78309 12.35144,2.00134 30.9333,8.28812 25.14783,8.50813 31.61677,10.04687 42.23794,10.04687 7.00027,0 8.81737,-0.39203 19.86,-4.28474 15.10266,-5.32401 18.43724,-5.86426 25.31651,-4.10193 5.47632,1.40298 17.68329,7.14498 26.56704,12.4967 2.78378,1.67702 5.25942,2.85109 5.50141,2.60912 0.24199,-0.24198 -3.48385,-8.02854 -8.27966,-17.30348 -13.71347,-26.52143 -19.63886,-41.44243 -25.38249,-63.917 -8.41827,-32.94037 -14.83262,-81.32578 -13.68008,-103.19328 0.59381,-11.26663 2.62871,-19.06989 9.56007,-36.66008 5.64485,-14.32532 30.10327,-63.83954 31.57613,-63.92347 2.7773,-0.15828 30.91612,59.81396 41.76286,89.00909 8.50813,22.90052 11.56303,38.74785 12.38146,64.22883 1.15481,35.95363 -2.59402,80.29461 -10.20325,120.68344 -1.3995,7.42835 -2.54609,13.58041 -2.54799,13.6713 -0.0208,0.99587 39.80779,1.39234 57.00717,0.56751 z"
       transform="scale(0.26458333)"
       style="fill:#000000;stroke-width:0.871361"
       id="path865" />
  </g>
</svg>
