<?xml version="1.0" encoding="UTF-8" standalone="no"?>
<svg
   xmlns:dc="http://purl.org/dc/elements/1.1/"
   xmlns:cc="http://creativecommons.org/ns#"
   xmlns:rdf="http://www.w3.org/1999/02/22-rdf-syntax-ns#"
   xmlns:svg="http://www.w3.org/2000/svg"
   xmlns="http://www.w3.org/2000/svg"
   xmlns:sodipodi="http://sodipodi.sourceforge.net/DTD/sodipodi-0.dtd"
   xmlns:inkscape="http://www.inkscape.org/namespaces/inkscape"
   width="1000"
   height="1000"
   viewBox="0 0 264.58333 264.58334"
   version="1.1"
   id="svg2206"
   inkscape:version="1.0 (4035a4fb49, 2020-05-01)"
   sodipodi:docname="S18.svg">
  <defs
     id="defs2200">
    <rect
       id="rect836"
       height="13.229167"
       width="148.16667"
       y="71.4375"
       x="31.75" />
  </defs>
  <sodipodi:namedview
     units="px"
     id="base"
     pagecolor="#ffffff"
     bordercolor="#666666"
     borderopacity="1.0"
     inkscape:pageopacity="0.0"
     inkscape:pageshadow="2"
     inkscape:zoom="1.1360799"
     inkscape:cx="717.6149"
     inkscape:cy="503.16807"
     inkscape:document-units="px"
     inkscape:current-layer="layer1"
     inkscape:document-rotation="0"
     showgrid="true"
     inkscape:window-width="2560"
     inkscape:window-height="1418"
     inkscape:window-x="1272"
     inkscape:window-y="-8"
     inkscape:window-maximized="1">
    <inkscape:grid
       type="xygrid"
       id="grid17" />
  </sodipodi:namedview>
  <metadata
     id="metadata2203">
    <rdf:RDF>
      <cc:Work
         rdf:about="">
        <dc:format>image/svg+xml</dc:format>
        <dc:type
           rdf:resource="http://purl.org/dc/dcmitype/StillImage" />
        <dc:title></dc:title>
      </cc:Work>
    </rdf:RDF>
  </metadata>
  <g
     id="layer4"
     inkscape:label="Contours"
     style="display:none"
     inkscape:groupmode="layer">
    <text
       xml:space="preserve"
       style="font-style:normal;font-variant:normal;font-weight:normal;font-stretch:normal;font-size:282.222px;line-height:125%;font-family:Ringbearer;-inkscape-font-specification:Ringbearer;letter-spacing:-5.29167px;word-spacing:0px;fill:#000000;fill-opacity:1;stroke:none;stroke-width:0.264583px;stroke-linecap:butt;stroke-linejoin:miter;stroke-opacity:1"
       x="42.421272"
       y="223.49553"
       id="text847"><tspan
         dy="0"
         rotate="0 0 0"
         sodipodi:role="line"
         id="tspan845"
         x="42.421272"
         y="223.49553"
         style="font-style:normal;font-variant:normal;font-weight:normal;font-stretch:normal;font-family:'Makan Hati';-inkscape-font-specification:'Makan Hati';baseline-shift:baseline;stroke-width:0.264583px"
         dx="0">18</tspan></text>
    <text
       style="font-style:normal;font-weight:normal;font-size:10.5833px;line-height:125%;font-family:Sans;letter-spacing:0px;word-spacing:0px;white-space:pre;shape-inside:url(#rect836);fill:#000000;fill-opacity:1;stroke:none;stroke-width:0.264583px;stroke-linecap:butt;stroke-linejoin:miter;stroke-opacity:1;"
       id="text834"
       xml:space="preserve" />
    <path
       sodipodi:nodetypes="ccccccccccccc"
       id="path840"
       d="m 55.5625,13.229167 -37.041667,66.145832 26.458334,113.770831 -23.8125,52.91667 84.666663,13.22916 13.22917,-15.87499 76.72917,13.22916 39.6875,-29.10416 7.9375,-89.95834 L 230.1875,87.312501 254,10.583333 129.64583,21.166667 Z"
       style="display:inline;fill:none;fill-rule:evenodd;stroke:#000000;stroke-width:0.264583px;stroke-linecap:butt;stroke-linejoin:miter;stroke-opacity:1" />
  </g>
  <g
     inkscape:groupmode="layer"
     id="layer1"
     inkscape:label="Pleins"
     style="display:inline">
    <path
       d="m 262.44498,1.5790641 c -0.295,-0.037579 -31.32425,2.4130691 -68.95359,5.4459863 L 125.07447,12.53954 83.977197,8.3701008 C 61.373739,6.0768856 42.794445,4.2872266 42.689737,4.3936664 42.194949,4.8966438 1.7892319,73.45025 1.7889788,73.787178 1.7888197,73.999148 8.3786114,100.98154 16.43251,133.74794 l 14.643532,59.5753 -12.993872,27.2843 c -7.146428,15.00619 -13.044326,27.50463 -13.1064923,27.77414 -0.108251,0.46931 1.8559264,0.7817 46.4513383,7.39234 25.610221,3.79636 46.696019,6.88366 46.857574,6.86063 0.161556,-0.023 3.57142,-3.76352 7.57775,-8.31169 4.00632,-4.54816 7.37004,-8.26931 7.47489,-8.26928 0.23314,7e-5 84.18034,13.67446 84.77217,13.80878 0.25181,0.0571 9.29248,-6.05978 22.46433,-15.20005 19.66344,-13.64492 22.04377,-15.36751 22.05293,-15.95685 0.005,-0.36335 1.97146,-21.6098 4.36863,-47.21431 l 4.35888,-46.55375 -7.36113,-26.48836 -7.36112,-26.488904 13.17487,-40.156333 C 262.0836,4.3839454 262.94476,1.6427323 262.44498,1.5790641 Z M 171.1368,33.238311 c 2.94229,0.01648 5.74191,0.165703 7.66969,0.452337 3.56108,0.529485 7.32134,1.443048 9.85083,2.393799 11.61223,4.364643 18.91458,12.595525 20.96695,23.63244 0.5472,2.942668 0.61626,10.211931 0.13273,13.965905 -1.62395,12.60768 -7.50544,27.288108 -15.74331,39.297338 -0.77508,1.12991 -1.31415,2.13284 -1.19802,2.22905 0.11613,0.0962 1.57357,1.06565 3.2384,2.15405 3.51966,2.301 12.07418,9.34808 16.01797,13.19497 8.62214,8.41031 13.72693,17.96228 15.02908,28.12265 0.46283,3.61136 0.16562,9.57028 -0.66537,13.3434 -2.07517,9.42226 -6.832,18.72345 -13.67534,26.74063 -2.53416,2.96882 -8.12017,8.21047 -11.31779,10.61959 -12.17909,9.17586 -27.08212,14.78508 -42.72739,16.08189 -13.08198,1.08434 -26.6771,-1.65012 -36.70622,-7.38201 -5.47359,-3.12829 -10.83056,-7.77349 -14.37635,-12.46701 -2.16354,-2.86385 -5.2939,-8.78448 -6.51475,-12.32237 -2.077384,-6.02006 -2.852224,-11.2073 -2.843664,-19.03187 0.0088,-8.07556 0.8541,-13.41956 3.238984,-20.47803 3.52941,-10.44589 9.05075,-19.13397 20.12803,-31.67285 2.30299,-2.60685 4.18707,-4.85677 4.18707,-5.00017 0,-0.1434 -1.31091,-1.4286 -2.91319,-2.85592 -5.55306,-4.94674 -8.87747,-8.2576 -10.61045,-10.56631 -3.15137,-4.198334 -5.54218,-9.414358 -6.59232,-14.382369 -0.63988,-3.027051 -0.64142,-10.161308 -0.003,-13.05199 1.96449,-8.893327 6.06343,-16.047209 13.10707,-22.875099 3.59904,-3.488805 6.0042,-5.363934 10.59322,-8.257329 9.10444,-5.740376 19.70267,-9.577393 31.21712,-11.302446 2.70789,-0.405684 6.72697,-0.603459 10.50991,-0.582276 z M 68.505675,34.853024 c 1.499236,-0.02824 3.070722,0.214118 4.683519,0.737223 4.836698,1.568771 7.565654,4.89611 8.475836,10.334163 1.082903,6.470026 1.125894,15.679267 0.371761,79.70267 -0.165994,14.09177 -0.226666,35.91032 -0.139049,50.0262 0.100152,16.13629 0.06213,26.0214 -0.106874,27.81003 -0.566345,5.99358 -1.600874,9.96156 -3.604432,13.82618 -1.560792,3.01059 -3.708787,5.11319 -6.083226,5.95378 -1.675907,0.59329 -4.393278,0.67303 -5.87465,0.17235 -6.27905,-2.12224 -10.098847,-9.4966 -11.372941,-21.9552 -0.429935,-4.20405 -0.314027,-23.07228 0.54931,-89.3094 0.156328,-11.99369 0.246383,-23.774607 0.200533,-26.179553 l -0.08332,-4.372775 -3.625112,3.232144 c -5.352871,4.772294 -6.963045,5.696063 -9.975532,5.722174 -1.804035,0.01565 -2.874504,-0.407341 -4.064102,-1.605471 -1.327146,-1.336661 -1.513346,-4.909562 -0.429798,-8.258412 0.557121,-1.721862 19.970954,-38.282876 21.493269,-40.477103 2.391192,-3.446609 5.753426,-5.28684 9.584803,-5.359 z m 99.016365,22.440704 c -3.29881,0.01177 -4.49635,0.123958 -6.67162,0.537152 -7.85237,1.49156 -14.46956,4.612702 -20.52048,9.679034 -4.07889,3.415184 -6.98457,6.968301 -8.33679,10.194439 -0.47213,1.126428 -0.57589,1.869965 -0.58551,4.199342 -0.0115,2.792292 0.001,2.855773 0.97049,4.71094 1.20646,2.309753 3.41477,4.505522 6.15793,6.12286 3.74935,2.210578 12.51719,5.883978 25.87627,10.841405 3.91668,1.45344 7.93682,2.9455 8.93379,3.31587 0.99697,0.37036 1.84839,0.64191 1.89157,0.60349 0.0431,-0.0384 1.06746,-4.02401 2.27653,-8.857007 1.94851,-7.788774 3.67825,-14.675995 6.08381,-24.223411 1.03216,-4.096557 1.61698,-8.062081 1.42211,-9.645874 -0.364,-2.958582 -2.14225,-5.140441 -5.03228,-6.175052 -2.7463,-0.983149 -5.27137,-1.28444 -10.91443,-1.302644 -0.56598,-0.0019 -1.08015,-0.0022 -1.55139,-5.57e-4 z m -12.6158,69.938812 -3.27346,2.88366 c -9.32985,8.21861 -15.88688,16.32064 -20.97958,25.92294 -1.96512,3.70524 -3.01096,6.50057 -3.79347,10.13844 -1.4624,6.79864 -0.63435,15.95949 1.91455,21.17937 3.51117,7.19054 9.41652,10.49964 20.7486,11.62703 8.62098,0.85766 17.26589,-0.59964 24.83452,-4.1863 5.03557,-2.38628 9.03212,-5.16157 13.50814,-9.38001 5.75455,-5.4234 9.18368,-10.66903 10.74663,-16.43908 0.86971,-3.21075 0.82086,-7.48803 -0.11952,-10.46955 -1.34081,-4.25108 -3.55506,-7.53511 -7.50477,-11.13173 -4.58544,-4.17552 -10.86617,-7.84847 -25.66885,-15.00976 -3.41818,-1.65366 -7.15948,-3.48519 -8.31379,-4.07049 z"
       style="fill:#000000;stroke:#000000;stroke-width:0.25189"
       id="path852" />
  </g>
</svg>
