<?xml version="1.0" encoding="UTF-8" standalone="no"?>
<svg xmlns="http://www.w3.org/2000/svg" viewBox="0 0 264.58333 264.58334" height="1000" width="1000" version="1.1">
	<defs>
		<radialGradient id="Gradient" cx="0.5" cy="0.5" r="0.5" fx="0.70" fy="0.75">
			<stop offset="0%" stop-color="#b6b6b6" />
			<stop offset="100%" stop-color="#5e5d5d" />
		</radialGradient>
		<style type="text/css">
			.primary { fill: url(#Gradient); }
			.secondary { fill: #000; }
		</style>
	</defs>
	<g>
		<path class="secondary"
			transform="scale(0.26458333)"
			d="m 412.35156,10.484375 c -14.0497,-0.05845 -29.09832,0.776281 -37.875,2.353516 -37.66878,6.769353 -70.58121,24.50133 -100.88086,54.353515 -30.07114,29.627054 -47.63063,60.241394 -53.83789,93.861324 -1.94022,10.50894 -1.91887,31.27674 0.043,41.2461 5.00025,25.40948 16.18888,45.72956 36.36524,66.04687 24.79929,24.97253 43.89288,35.92743 121.13867,69.50391 14.1567,6.1535 31.41778,13.81938 38.35742,17.03516 48.76847,22.59892 77.91155,45.6674 90.52148,71.65429 2.74163,5.65001 8.67969,22.06239 8.67969,23.98828 0,0.22653 -1.61329,0.41302 -3.58594,0.41602 -5.00335,0.007 -18.72574,2.15331 -26.57812,4.1582 -16.63087,4.24624 -31.14219,9.75578 -66.94141,25.41016 -27.61274,12.07457 -38.16922,16.18865 -51.66406,20.13476 -23.66685,6.92059 -106.709,24.73124 -200.66211,43.03711 -23.93228,4.66297 -44.92392,9.06738 -46.64648,9.78711 -3.74019,1.56275 -9.52664,6.61571 -11.04297,9.64453 -2.37226,4.73849 -3.14101,10.18592 -2.13867,15.14649 1.80859,8.95078 6.42331,14.27017 15.15039,17.46094 3.37624,1.23442 7.4034,1.33304 36.28906,0.87695 66.54482,-1.05072 141.39857,-4.49184 176.80078,-8.12695 30.15575,-3.09641 49.12571,-7.29603 99.41211,-22.00782 42.51255,-12.43747 63.69998,-17.39399 81.07812,-18.96875 l 6.61329,-0.59961 -0.57618,8.35157 c -0.31724,4.59391 -1.3749,15.37799 -2.34961,23.96484 -2.29265,20.19733 -2.23396,23.31811 0.54688,29.00195 l 2.2207,4.53711 -7.39258,7.05274 c -17.14548,16.35809 -21.34689,20.90936 -23.42578,25.375 -2.52609,5.42625 -2.60633,7.8445 -0.49804,15.21679 2.08095,7.27669 5.17757,11.12736 11.3457,14.10938 2.82939,1.36789 4.53793,2.63973 3.99609,2.97461 -3.65907,2.26143 -10.64757,28.59148 -9.95507,37.50391 l 0.41796,5.38476 -5.06054,-0.5293 c -15.99858,-1.67219 -38.42185,-7.73497 -79.99805,-21.63086 -62.27294,-20.81332 -87.71358,-26.17745 -124.05664,-26.15625 -35.81725,0.0209 -86.2145,6.48675 -151.06055,19.38086 -36.716228,7.30072 -52.691346,10.84815 -56.804685,12.61133 -10.509008,4.50469 -15.414255,18.96613 -10.181641,30.01758 2.486573,5.25172 5.694642,8.33297 11.28711,10.83984 4.647784,2.08342 4.825038,2.085 65.404296,0.5918 46.11927,-1.13679 90.74676,-0.80194 111.59961,0.83594 31.62682,2.4841 48.90886,6.44584 110.34961,25.30273 50.32128,15.44419 73.65951,21.29053 94.98828,23.79297 6.68448,0.78427 8.37913,1.25386 8.33203,2.30664 -0.0325,0.72697 -2.0254,7.01306 -4.42969,13.9707 l -4.37109,12.6504 -13.92578,-0.2461 c -7.65854,-0.13606 -19.99368,-0.61644 -27.41211,-1.0664 -15.81816,-0.95944 -20.44199,-0.29585 -26.37891,3.78515 -10.7001,7.35519 -12.65945,25.54242 -3.63086,33.69922 5.0591,4.57057 10.45295,6.93344 26.41993,11.57422 43.33792,12.59595 87.25276,22.20559 111.18359,24.32812 29.43407,2.61066 62.98032,-1.3725 102.79687,-12.20703 5.88573,-1.60158 28.60156,-8.60654 50.48047,-15.5664 21.87892,-6.95986 46.1848,-14.36498 54.01172,-16.45508 22.41197,-5.98479 66.04489,-14.58756 141.24024,-27.84766 46.42323,-8.18638 46.98508,-8.32944 52.18554,-13.31445 8.0302,-7.69739 9.05962,-20.4728 2.40821,-29.88477 -5.26275,-7.447 -8.12868,-8.32908 -38.98242,-12.0039 -45.54779,-5.42497 -70.97673,-7.08335 -109.70899,-7.15235 -35.31791,-0.0629 -39.79697,0.29452 -63.16797,5.04493 -18.96789,3.85544 -32.81612,7.96388 -83.67383,24.82812 -60.47167,20.05219 -61.36298,20.33256 -78.29297,24.51172 -11.09942,2.73988 -28.04569,5.88086 -31.72851,5.88086 -0.51755,0 0.3738,-1.72462 1.98242,-3.83203 1.60863,-2.10741 3.35796,-5.43083 3.88672,-7.38477 0.95033,-3.51168 0.66307,-12.29585 -0.49609,-15.15625 -0.44331,-1.09392 -0.18849,-1.47656 0.98242,-1.47656 2.66919,0 23.72465,-5.54061 35.30859,-9.29102 29.68607,-9.61118 65.13291,-24.44927 102.95117,-43.0957 18.03575,-8.89258 22.31389,-12.31036 24.46289,-19.54687 2.03414,-6.84967 1.65645,-10.07374 -2.02929,-17.32813 -3.72963,-7.34077 -6.70739,-9.87373 -13.81055,-11.74219 -5.45889,-1.43596 -6.43075,-1.28305 -31.29883,4.91016 -11.08376,2.76033 -20.45569,4.90812 -20.82617,4.77344 -0.37048,-0.13468 5.58002,-8.59917 13.22461,-18.81055 17.44348,-23.30043 26.96011,-37.34915 28.11328,-41.50195 1.45412,-5.23661 1.10273,-11.98967 -0.83203,-15.98633 -1.62847,-3.36398 -6.10512,-8.03277 -9.67187,-10.08594 -1.29134,-0.74336 0.22078,-1.37478 8.50585,-3.55859 21.52802,-5.67442 34.53796,-6.53283 44.25586,-2.91992 2.55285,0.94909 10.14868,3.82688 16.87891,6.39648 27.32688,10.43345 39.10261,12.0923 69.57422,9.79883 34.37779,-2.58746 79.98822,-11.76382 143.93555,-28.95703 33.40709,-8.982 41.79974,-11.88359 46.28515,-16.00977 11.13472,-10.24321 7.80181,-30.03151 -6.15234,-36.5293 -5.5068,-2.56422 -9.47368,-2.55303 -33.42774,0.082 -66.3645,7.30042 -123.1948,7.16033 -154.94726,-0.38086 -3.89438,-0.92491 -8.20109,-2.2607 -9.57031,-2.96875 -1.36922,-0.70806 -7.71944,-6.26144 -14.11329,-12.33985 -9.72307,-9.2434 -19.35879,-17.12083 -24.55468,-20.07422 -0.87014,-0.4946 -0.004,-3.94878 3.95312,-15.75586 5.76639,-17.20567 11.15532,-38.44218 13.36914,-52.67968 2.15169,-13.83812 2.13097,-56.52514 -0.0351,-71.73243 C 754.85042,325.87691 743.41633,289.09541 723.3575,247.97652 708.98026,218.50441 694.8783,195.56764 674.44344,168.41402 640.41399,123.19621 594.47306,79.546977 554.52734,54.482422 517.31626,31.13376 476.09993,16.343628 434.99023,11.585938 c -6.1394,-0.710524 -14.20885,-1.066492 -22.63867,-1.101563 z m 63.08789,553.740235 c -1.01613,-0.0154 -2.05001,0.0433 -3.09765,0.18164 -2.37335,0.31342 -19.12652,4.88454 -37.22852,10.1582 -18.102,5.27365 -54.93844,15.92306 -81.85937,23.66602 -26.92092,7.74295 -50.90534,14.81184 -53.29883,15.70703 -13.95922,5.22086 -18.41135,25.40378 -8.04688,36.48242 1.24906,1.33512 4.16947,3.3556 6.49024,4.49024 4.19267,2.04983 4.34196,2.06059 23.20898,1.60742 28.75238,-0.69059 57.72587,-3.45028 76.73438,-7.31055 11.65462,-2.36685 20.2053,-5.3166 31.70898,-10.93945 12.84216,-6.27707 56.45982,-32.12072 60.23242,-35.6875 1.56534,-1.47995 3.74475,-4.58939 4.84375,-6.91016 6.78496,-14.32773 -4.44549,-31.21435 -19.6875,-31.44531 z M 826.3125,863.62109 c -5.78877,-0.009 -7.77577,0.51746 -37.17578,9.84375 -52.89115,16.77817 -109.61414,31.08122 -145.57617,36.70704 -14.10815,2.20703 -54.49313,3.04966 -77.28907,1.61328 -25.54046,-1.60931 -57.48417,-6.17882 -106.68359,-15.26172 -111.2242,-20.53355 -136.89649,-23.84656 -185.24023,-23.91016 -32.11046,-0.0422 -57.68071,2.37945 -101.34961,9.59961 -46.7803,7.7346 -145.760506,28.63438 -153.898441,32.49609 -5.696887,2.70335 -5.664587,2.56449 -4.263671,19.01368 0.68881,8.08783 1.255818,15.70261 1.261718,16.92187 0.009,1.8536 0.736836,2.54417 4.441406,4.21875 l 4.431641,2.00195 98.738277,-0.27929 c 157.05066,-0.44632 172.12592,0.39895 262.45704,14.71289 89.0212,14.10636 107.53169,16.67374 142.20117,19.72461 20.00516,1.76044 39.02565,2.00113 68.92578,0.875 43.04714,-1.62129 67.43328,-6.29264 103.73828,-19.87305 33.58509,-12.56297 91.03701,-40.28745 128.61328,-62.06641 15.32374,-8.88154 18.58258,-13.12964 18.54688,-24.16601 -0.0429,-13.23531 -8.84122,-22.15208 -21.87891,-22.17188 z"
		/>
		<path class="primary"
			d="m 138.8148,231.17777 c -7.03947,-0.88758 -16.50137,-3.02513 -26.82459,-6.06001 -4.9906,-1.46716 -5.50607,-1.7216 -3.13537,-1.54762 7.08833,0.52022 19.98424,0.68522 25.89766,0.33137 9.53526,-0.57061 15.41134,-2.01488 33.63471,-8.26714 13.89842,-4.7684 17.27122,-5.77829 23.4261,-7.01423 5.65091,-1.13474 8.28546,-1.31917 16.97855,-1.18853 7.43168,0.11166 11.2038,0.33713 19.45009,1.16255 5.64241,0.56477 13.20919,1.50043 13.37384,1.65372 0.0861,0.0801 -2.38019,0.58009 -5.48041,1.11119 -20.36989,3.48955 -35.87632,6.45801 -41.74305,7.99104 -4.53144,1.18411 -6.21011,1.68894 -14.39953,4.33035 -10.90302,3.51664 -11.4894,3.69803 -15.15174,4.68723 -4.13893,1.1179 -7.84044,1.91329 -11.60559,2.49381 -3.85136,0.59383 -10.97943,0.75016 -14.42067,0.31627 z M 81.471988,167.92116 c 0.06968,-0.0771 6.839606,-2.04775 15.04428,-4.37928 8.204682,-2.33153 18.107712,-5.19178 22.006742,-6.35612 3.89903,-1.16432 7.12413,-2.08056 7.16687,-2.0361 0.0427,0.0445 -0.3427,0.30173 -0.85652,0.57169 -0.51383,0.26997 -2.98722,1.74041 -5.49643,3.26767 -4.80264,2.92318 -9.39266,5.33857 -11.56267,6.08459 -1.69329,0.58212 -4.96927,1.26781 -8.053449,1.68565 -4.507237,0.61062 -18.559274,1.50533 -18.248823,1.1619 z M 33.633435,151.91061 c 0.23641,-0.10897 2.896024,-0.66354 5.910253,-1.23241 12.740403,-2.40446 32.779883,-6.48453 44.058254,-8.97034 15.692373,-3.45866 18.049058,-4.18808 28.500788,-8.8214 7.85248,-3.48103 11.20202,-4.83793 14.54537,-5.89232 2.53258,-0.79869 6.39444,-1.63072 8.0947,-1.74397 l 0.95745,-0.0638 0.1614,0.96087 c 0.24402,1.45274 0.61019,7.66634 0.61019,10.35452 v 2.37871 l -1.55815,0.1565 c -5.06726,0.50893 -11.06554,1.9232 -21.86794,5.15608 -15.894544,4.75679 -19.760842,5.45621 -35.7839,6.47338 -12.661445,0.80377 -44.652297,1.71605 -43.628415,1.24415 z M 144.42382,256.64584 c -0.53193,-0.0457 -2.36947,-0.18986 -4.08344,-0.32024 -6.1725,-0.46957 -14.31584,-1.5106 -24.28577,-3.10465 -2.305,-0.36855 -7.62423,-1.222 -11.82052,-1.89658 -24.844479,-3.99384 -29.891792,-4.28694 -70.563212,-4.09759 -14.282221,0.0665 -25.9361664,0.0891 -25.8976571,0.0504 0.2927107,-0.29465 19.8333671,-4.51414 28.9765281,-6.257 17.777887,-3.38881 27.893483,-4.52759 38.147999,-4.29458 11.06773,0.25149 18.418097,1.22514 40.760102,5.39922 22.99091,4.29531 30.87429,5.26912 42.73566,5.27898 6.82023,0.006 10.34287,-0.27249 15.77871,-1.24589 10.29914,-1.8443 23.38395,-5.25867 37.84341,-9.87492 7.09058,-2.2637 7.49723,-2.36119 5.91025,-1.4167 -7.6522,4.55418 -22.73452,12.06869 -30.84077,15.36587 -12.56165,5.10943 -18.73756,6.2967 -33.4198,6.42472 -4.5509,0.0396 -8.70957,0.0347 -9.24149,-0.0111 z M 127.6602,220.21178 c 0,-0.0978 0.50773,-1.71999 1.12831,-3.60477 l 1.12832,-3.42686 1.28951,-0.004 c 0.70923,-0.002 1.82143,-0.0691 2.47156,-0.14871 l 1.18206,-0.1448 -2.47854,2.7514 c -2.45142,2.72129 -4.72122,4.92207 -4.72122,4.57764 z m -3.65362,-15.4309 c -6.87477,-0.90013 -11.8281,-2.11043 -23.74847,-5.80269 -21.667,-6.7112 -25.679068,-7.44078 -43.091121,-7.83569 -5.530119,-0.12542 -19.260974,0.0954 -29.987477,0.48229 -2.242391,0.0809 -4.02233,0.0845 -3.955419,0.009 0.212175,-0.24229 17.045398,-3.66531 23.196981,-4.71707 19.992496,-3.4182 31.169416,-4.03151 40.619559,-2.22888 4.685878,0.89385 13.283967,3.37879 19.665027,5.68342 3.06288,1.10622 10.51892,3.43384 13.61647,4.25082 9.52186,2.51132 16.50363,2.84894 27.00309,1.30577 6.86506,-1.00899 17.17241,-3.23001 26.22003,-5.64986 2.48231,-0.6639 4.55292,-1.16727 4.60136,-1.11856 0.12605,0.12674 -6.00285,3.14834 -10.89544,5.37153 -10.86966,4.93917 -19.85282,8.18913 -26.91079,9.73588 -2.90518,0.63667 -3.48037,0.68821 -8.48929,0.76074 -3.81215,0.0552 -6.09091,-0.0162 -7.84451,-0.24581 z m 12.68018,-15.96439 c 0,-0.26644 1.26028,-5.64785 1.34278,-5.7337 0.2205,-0.22943 7.8294,-4.20087 11.12248,-5.80536 8.04481,-3.91966 21.41441,-9.42513 21.83232,-8.99034 0.2747,0.28582 -12.55084,17.49863 -13.18826,17.69962 -1.86196,0.58707 -13.09163,2.41436 -17.24079,2.8054 -3.05849,0.28823 -3.86853,0.29335 -3.86853,0.0244 z m -1.71934,-15.6459 c 0,-0.34525 9.85366,-9.57788 14.95414,-14.01164 9.56154,-8.3117 16.2459,-13.04009 23.10833,-16.34639 6.54746,-3.15453 11.55318,-4.50462 15.77878,-4.25565 3.78216,0.22285 5.6984,1.24951 9.88202,5.29458 4.21857,4.07883 5.70079,5.04537 9.07462,5.91744 9.19393,2.37644 25.01406,2.45435 44.19091,0.2176 2.69989,-0.31491 4.94847,-0.53139 4.99684,-0.48108 0.26524,0.27597 -18.07569,5.22093 -25.37987,6.84274 -11.75651,2.61041 -19.28422,3.68255 -26.00512,3.70381 -4.81569,0.0153 -5.42729,-0.11936 -11.60558,-2.55421 -5.63779,-2.22184 -6.95466,-2.54952 -10.20861,-2.54022 -5.15748,0.0147 -12.07351,1.79313 -21.81421,5.60933 -7.05864,2.76542 -16.76136,7.28009 -23.90967,11.12518 -1.68442,0.90604 -3.06258,1.57138 -3.06258,1.47851 z m 7.59986,-15.79806 c 0.26733,-1.82172 0.56846,-4.58414 0.92481,-8.48366 0.52763,-5.77384 0.52756,-17.58646 -1.4e-4,-22.02542 C 141.91011,113.55701 138.2753,105.93087 130.35183,99.294372 124.67235,94.537389 117.63349,90.615755 105.20122,85.281967 88.619655,78.168001 84.489406,76.182525 79.204684,72.785015 68.833922,66.117719 63.619584,57.937104 63.575682,48.265145 63.538152,39.996097 67.348749,31.641328 74.780135,23.699288 81.470375,16.549327 89.357186,11.692713 97.46417,9.7307034 c 6.05985,-1.4665706 13.77919,-1.5563781 20.95453,-0.2437868 9.65919,1.7669604 19.58618,5.9331904 27.83193,11.6807054 9.26334,6.456802 19.16734,16.07963 26.92279,26.15849 12.99538,16.888547 21.00577,36.036726 22.62804,54.090498 0.3736,4.15775 0.16297,11.87003 -0.41711,15.27267 -0.7755,4.54898 -2.77701,11.56526 -4.51085,15.81283 l -0.3735,0.91502 -2.8895,0.0498 c -6.31596,0.1091 -11.56643,1.7484 -20.46798,6.39055 -6.72927,3.50931 -13.49347,8.5183 -23.98026,17.7578 l -0.72427,0.63813 z"
		/>
	</g>
</svg>
