<?xml version="1.0" encoding="UTF-8" standalone="no"?>
<svg xmlns="http://www.w3.org/2000/svg" width="1000" height="1000" viewBox="0 0 264.58333 264.58334" version="1.1">
	<radialGradient id="Gradient" cx="0.5" cy="0.5" r="0.85" fx="0.35" fy="0.55">
		<stop offset="0%" stop-color="#ccc" />
		<stop offset="25%" stop-color="#aaa" />
		<stop offset="100%" stop-color="#333" />
	</radialGradient>
	<radialGradient id="GradientPoint" cx="0.5" cy="0.5" r="0.85" fx="0.35" fy="0.55">
		<stop offset="0%" stop-color="#E9C069" />
		<stop offset="25%" stop-color="#B99039" />
		<stop offset="100%" stop-color="#6A4D1D" />
	</radialGradient>
	<style type="text/css">
		.category { fill: url(#Gradient); }
		.operator { fill: #000; }
		.point .border { fill: #000; }
		.point .color { fill: url(#GradientPoint); }
	</style>
	<g>
		<path class="category" transform="matrix(1,0,0,1,65,135), scale(0.48)"
			d="m 156.10417,254 -42.10361,-9.46778 -21.223572,8.16208 -21.223569,8.16207 -33.834997,-17.6254 C 19.109177,233.537 3.8655558,225.58843 3.8437117,225.56747 c -0.021844,-0.0209 4.379373,-22.46393 9.7804823,-49.8733 5.401111,-27.40937 9.829784,-50.21257 9.841499,-50.67379 0.01171,-0.46121 -3.136326,-20.25736 -6.99565,-43.991433 L 9.453088,37.876085 23.543075,20.260959 37.633059,2.6458334 65.851458,9.4370069 94.069856,16.22818 159.59203,14.919097 c 36.03721,-0.719996 66.58806,-1.309104 67.89078,-1.309129 l 2.36859,-4.4e-5 -1.40907,43.426119 -1.40906,43.426117 16.84363,20.24556 c 9.264,11.13505 16.84257,20.40728 16.84128,20.60495 -0.003,0.19765 -9.91044,15.23807 -22.02029,33.42313 -12.10984,18.18506 -22.26785,33.49501 -22.57335,34.02212 -0.3055,0.5271 -4.04816,12.17129 -8.31704,25.87597 -4.26887,13.70469 -8.04182,25.8071 -8.38431,26.89425 -0.3425,1.08715 -0.75609,1.96832 -0.91908,1.95814 -0.16298,-0.0103 -19.24296,-4.279 -42.39994,-9.48628 z m 2.49133,-26.088 c 4.07893,-2.92265 7.09332,-5.76396 8.8824,-8.37243 2.76607,-4.03287 4.72786,-9.00849 6.28207,-15.93288 4.91321,-21.88958 9.53786,-43.059 10.40136,-47.6124 0.30544,-1.61063 0.63369,-3.05032 0.72945,-3.19933 0.10636,-0.16552 2.38695,-0.44677 5.86117,-0.72283 6.7429,-0.53582 9.13868,-0.81797 12.31394,-1.4503 6.32127,-1.25881 11.51355,-3.6656 15.56531,-7.21504 1.70246,-1.49138 1.70359,-1.41502 -0.0588,-3.96858 -4.48554,-6.49894 -12.10575,-10.0746 -24.66212,-11.57229 -1.81192,-0.21613 -2.55362,-0.39792 -2.55362,-0.62592 0,-0.17672 1.24032,-5.51933 2.75628,-11.87243 2.63302,-11.03453 3.89562,-16.867114 6.18294,-28.562174 2.27273,-11.620399 3.11751,-18.599149 3.11778,-25.756181 2.3e-4,-5.75091 -0.30796,-7.252341 -2.25589,-10.990448 -3.13624,-6.018473 -10.26899,-10.485946 -19.9761,-12.511683 -2.24205,-0.467888 -3.57305,-0.517167 -19.50307,-0.7221 -21.41262,-0.275464 -49.52197,0.04152 -52.16239,0.588226 -2.29238,0.474642 -4.99968,1.294339 -6.1764,1.870033 -1.3761,0.673253 -3.721839,3.033452 -4.491933,4.519648 -0.400355,0.772637 -0.664888,1.676207 -0.661339,2.258943 0.0071,1.1603 0.84009,3.201353 1.926182,4.719486 1.01364,1.416849 3.24582,3.536377 4.04711,3.842875 2.48776,0.95157 7.73876,1.298893 24.66424,1.63138 33.14873,0.651183 33.60134,0.67316 42.10574,2.044231 4.65487,0.750458 5.73165,1.112307 6.84886,2.301565 1.93439,2.059141 1.91023,2.960793 -0.35549,13.266037 -4.63057,21.061316 -12.44948,55.760842 -12.59659,55.902302 -0.0511,0.0491 -2.93147,0.45686 -6.40074,0.90593 -19.7451,2.55588 -25.79537,3.59194 -31.59484,5.41031 -6.73007,2.11015 -9.50865,4.88031 -9.5684,9.53938 -0.0188,1.47074 0.0961,2.04137 0.63337,3.14345 1.23691,2.53735 3.41242,4.19044 6.72445,5.10966 2.03695,0.56534 8.22443,0.85701 21.4802,1.01259 l 11.67104,0.13696 -0.17254,2.18695 c -0.10688,1.35463 -1.29492,7.11096 -3.12163,15.12493 -3.11137,13.64989 -4.36428,19.47909 -5.8707,27.31354 -2.27914,11.85318 -1.0508,19.97832 4.40692,29.15023 0.8115,1.36378 1.36612,2.06122 1.55347,1.95351 0.16025,-0.0921 1.97302,-1.37245 4.02837,-2.84515 z m -84.199857,-5.64033 c 2.284397,-0.82197 4.351189,-2.87778 5.852794,-5.82169 1.927579,-3.77903 2.922832,-7.65946 3.467699,-13.52028 0.162598,-1.74902 0.19913,-11.41483 0.10277,-27.19374 -0.08429,-13.80323 -0.02598,-35.13896 0.133718,-48.91864 C 84.678157,64.211929 84.636837,55.207054 83.594999,48.880328 82.719334,43.562718 80.093608,40.30884 75.440325,38.774814 69.923401,36.956075 64.914128,38.605413 61.713412,43.294486 60.248825,45.440114 41.571296,81.1912 41.035303,82.874926 c -1.042458,3.274679 -0.863746,6.768463 0.413071,8.075518 1.144487,1.171595 2.174536,1.58514 3.910161,1.569856 2.898247,-0.02553 4.447438,-0.928709 9.597319,-5.595304 l 3.487871,-3.160553 0.0802,4.275789 c 0.04411,2.351683 -0.04285,13.871468 -0.193248,25.599508 -0.830597,64.77009 -0.942289,83.2205 -0.528658,87.33143 1.225778,12.18266 4.900999,19.39376 10.941935,21.46899 1.425196,0.4896 4.039333,0.41165 5.651686,-0.16849 z"
		/>
		<path class="operator" transform="matrix(1,0,0,1,0,2)"
			d="m 152.12426,53.390719 -18.75456,18.75455 -18.75454,-18.75455 -20.550007,20.55001 18.754547,18.75454 -18.754547,18.754551 20.550007,20.55 18.75454,-18.75454 18.75431,18.7543 20.55001,-20.55001 -18.75431,-18.754301 18.75455,-18.75454 z"
		/>
		<g class="point" transform="matrix(0.25569932,0,0,0.25569932,71.179641,-2.6933194)">
			<path class="border"
				d="m 117.50781,10.533203 a 10.636495,10.636495 0 0 0 -9.9082,6.683594 L 75.117188,98.425781 16.957031,64.871094 A 10.636495,10.636495 0 0 0 1.3632812,76.810547 L 35.757812,206.45508 a 10.636495,10.636495 0 0 0 10.279297,7.9082 H 186.26758 a 10.636495,10.636495 0 0 0 10.33008,-8.10547 l 31.75,-129.644529 A 10.636495,10.636495 0 0 0 212.54492,64.964844 L 157.38281,98.0625 127.44531,17.462891 a 10.636495,10.636495 0 0 0 -9.9375,-6.929688 z"
			/>
			<path class="color"
				d="M 46.037497,203.72916 H 186.26667 l 31.75,-129.64583 -66.14583,39.6875 L 117.475,21.166663 80.433331,113.77083 11.641664,74.08333 Z"
			/>
		</g>
		<g class="point" transform="matrix(0.25569932,0,0,0.25569932,134.67964,-2.6933194)">
			<path class="border"
				d="m 117.50781,10.533203 a 10.636495,10.636495 0 0 0 -9.9082,6.683594 L 75.117188,98.425781 16.957031,64.871094 A 10.636495,10.636495 0 0 0 1.3632812,76.810547 L 35.757812,206.45508 a 10.636495,10.636495 0 0 0 10.279297,7.9082 H 186.26758 a 10.636495,10.636495 0 0 0 10.33008,-8.10547 l 31.75,-129.644529 A 10.636495,10.636495 0 0 0 212.54492,64.964844 L 157.38281,98.0625 127.44531,17.462891 a 10.636495,10.636495 0 0 0 -9.9375,-6.929688 z"
			/>
			<path class="color"
				d="M 46.037497,203.72916 H 186.26667 l 31.75,-129.64583 -66.14583,39.6875 L 117.475,21.166663 80.433331,113.77083 11.641664,74.08333 Z"
			/>
		</g>
	</g>
</svg>
