<?xml version="1.0" encoding="UTF-8" standalone="no"?>
<svg xmlns="http://www.w3.org/2000/svg" width="1000" height="1000" viewBox="0 0 264.58333 264.58334" version="1.1">
	<radialGradient id="Gradient" cx="0.5" cy="0.5" r="0.85" fx="0.35" fy="0.55">
		<stop offset="0%" stop-color="#77BB77" />
		<stop offset="25%" stop-color="#339933" />
		<stop offset="100%" stop-color="#003300" />
	</radialGradient>
	<radialGradient id="GradientPoint" cx="0.5" cy="0.5" r="0.85" fx="0.35" fy="0.55">
		<stop offset="0%" stop-color="#E9C069" />
		<stop offset="25%" stop-color="#B99039" />
		<stop offset="100%" stop-color="#6A4D1D" />
	</radialGradient>
	<style type="text/css">
		.category { fill: url(#Gradient); }
		.operator { fill: #000; }
		.point .border { fill: #000; }
		.point .color { fill: url(#GradientPoint); }
	</style>
	<g>
		<path class="category" transform="matrix(1,0,0,1,65,135), scale(0.130)"
			d="M 540,1.5371094 C 539.58675,1.3931738 494.40784,19.195449 439.60156,41.097656 L 339.95312,80.919922 216.24219,70.964844 C 148.20058,65.489156 92.475716,61.056121 92.410156,61.113281 c -0.06555,0.05716 24.380204,26.819166 54.324224,59.470699 29.944,32.65153 54.14281,59.62177 53.77343,59.93555 -0.36937,0.31377 -45.16822,13.8771 -99.55273,30.13867 C 46.570565,226.91977 1.9115365,240.35034 1.7128906,240.50391 1.5142448,240.6575 28.019594,298.5513 60.615234,369.1582 c 32.595646,70.6069 59.435206,129.23046 59.642576,130.27539 0.20737,1.04492 -13.05629,64.58327 -29.474607,141.19532 l -29.851562,139.29492 19.736328,74.30273 c 10.855112,40.86708 19.827761,74.43768 19.937501,74.59961 0.10974,0.16185 36.07941,-4.20107 79.93359,-9.69531 l 79.73438,-9.99024 109.45703,44.86915 c 60.2006,24.67749 109.75769,44.90181 110.12891,44.94531 0.37121,0.043 67.81589,-11.1009 149.875,-24.76563 l 149.19726,-24.8457 89.52148,-24.8418 c 49.23641,-13.66339 89.68337,-25.00572 89.88282,-25.20507 0.19935,-0.19944 -12.90098,-40.19502 -29.11328,-88.87891 L 899.74414,721.90039 859.8418,622.13281 C 837.89489,567.26055 819.76353,521.7445 819.55078,520.98438 c -0.21363,-0.76323 39.87274,-68.47868 89.52539,-151.23047 l 89.91016,-149.84766 -39.14844,-88.0918 C 938.3057,83.36401 920.31965,43.162575 919.86914,42.476562 919.20065,41.458521 897.06523,48.561372 799.4375,81.119141 L 679.82422,121.00781 610.28906,61.404297 C 572.04403,28.622124 540.41325,1.6810449 540,1.5371094 Z M 482.81445,121.55078 c 10.41086,0.008 20.64672,0.55984 25.63672,1.65039 26.81681,5.86076 46.94143,17.63859 68.94141,40.34571 18.78601,19.38983 27.83449,34.98838 38.45117,66.28515 5.54967,16.35979 5.92537,23.56121 2.55664,49.0625 -2.11785,16.03205 -2.30004,18.94873 -1.23437,19.67188 1.59184,1.08021 16.66197,0.22032 26.16601,-1.49414 8.34726,-1.50578 21.51724,-5.57196 41.95117,-12.94922 7.99893,-2.88785 14.95832,-5.11091 15.4668,-4.94141 0.50847,0.16949 -0.67257,2.07853 -2.625,4.24219 -1.95243,2.16368 -10.00994,11.0347 -17.90625,19.71289 -7.89631,8.67819 -14.35742,16.10139 -14.35742,16.49805 0,0.9423 9.79451,1.84626 20.39648,1.88085 9.47927,0.0309 14.71443,0.97209 16.25196,2.92383 0.57304,0.72743 4.03042,3.21532 7.68359,5.5293 17.74189,11.23796 28.33643,27.12185 28.36133,42.52344 0.0115,7.14258 -1.38667,10.71881 -8.83008,22.5957 -12.62064,20.13782 -13.76751,25.06874 -13.72461,58.99219 0.0308,24.32307 0.21084,27.13646 3.33984,51.8789 6.31196,49.91179 6.27023,49.38536 6.32813,77.59766 0.0469,22.80917 -0.18233,27.67998 -1.59961,34.14258 -6.46498,29.47949 -21.27913,53.58055 -38.70117,62.96094 -5.11588,2.75449 -6.50219,3.10247 -12.41016,3.10546 -6.02379,0.003 -7.40539,-0.35974 -14.63281,-3.83203 -14.04264,-6.74651 -21.94162,-12.71325 -37.72461,-28.49804 -8.06679,-8.06772 -17.63953,-17.86165 -21.27149,-21.76367 l -6.60351,-7.09571 -0.28516,4.78711 c -0.44602,7.46684 5.65544,76.85737 16.15039,183.66406 4.96887,50.56797 7.41912,79.318 8.17188,95.88477 l 0.58789,12.91992 -6.56055,2.73047 c -13.24393,5.51188 -20.49647,7.50896 -29.61914,8.16016 -10.91131,0.77899 -79.37265,-0.47542 -80.25195,-1.47071 -0.3497,-0.39579 -3.33668,-11.09575 -6.63672,-23.77734 -3.30004,-12.68159 -7.01472,-26.25031 -8.25586,-30.15234 l -2.25781,-7.09571 -1.65235,5.3086 c -0.90984,2.9195 -4.08917,17.88462 -7.06445,33.25586 -2.97528,15.37124 -5.85665,28.23626 -6.40234,28.58789 -0.54569,0.35171 -3.78494,1.28369 -7.19922,2.07226 -3.41427,0.78856 -10.79709,1.61254 -16.40625,1.83008 l -10.19922,0.39453 -11.5293,-4.58789 c -8.50704,-3.38536 -15.31469,-5.33903 -25.97656,-7.45703 -7.94692,-1.57864 -14.71,-3.13191 -15.0293,-3.45117 -1.11473,-1.11474 -2.83062,-33.17382 -3.70507,-69.25391 -0.48467,-19.9979 -1.15301,-74.99477 -1.48633,-122.21484 -0.35096,-49.71744 -0.9367,-85.52619 -1.39063,-85.07227 -1.28493,1.28494 -11.46482,26.66554 -26.58789,66.28125 -7.82027,20.48564 -21.80091,57.00074 -31.0664,81.14453 -9.26548,24.1438 -17.83031,47.67341 -19.03321,52.28711 -2.81171,10.78425 -3.98034,12.4138 -8.91797,12.4375 -2.36799,0.0114 -3.52956,-0.8199 -7.0957,-5.08398 -2.34495,-2.80386 -6.29671,-7.19443 -8.7832,-9.75586 -6.87517,-7.08236 -7.89287,-6.92235 -32.24219,5.05859 -19.48539,9.58768 -25.00633,11.48276 -29.95898,10.28711 -5.53297,-1.33574 -23.20367,-22.87912 -27.1504,-33.10156 -2.94226,-7.62079 -2.81161,-7.87032 12.06446,-23.13086 21.68226,-22.24262 31.15475,-36.04854 47.24609,-68.85938 16.09562,-32.81956 23.2818,-53.03557 54.05664,-152.08984 26.6076,-85.64128 33.21889,-105.01361 42.5918,-124.78711 8.45497,-17.83697 20.27365,-33.44083 30.41797,-40.16015 5.24892,-3.47675 36.06979,-13.22911 54.52344,-17.25196 1.36126,-0.29675 2.24431,-0.91183 1.96289,-1.36718 -0.28144,-0.45537 -4.23688,-3.02012 -8.78907,-5.69922 -15.5342,-9.14237 -33.79252,-23.90201 -39.99023,-32.32813 -1.46326,-1.98938 -3.19115,-3.62717 -3.83789,-3.63867 -0.64674,-0.0115 -3.54084,1.79945 -6.4336,4.02539 -10.74778,8.27023 -25.12191,14.43613 -51.66601,22.16211 -10.53224,3.06554 -14.77344,3.72247 -14.77344,2.28711 0,-0.42344 3.82665,-5.11225 8.50391,-10.41992 l 8.5039,-9.65039 -5.17773,-0.57032 c -2.84818,-0.31287 -11.66385,-0.61106 -19.58984,-0.66406 -7.926,-0.0529 -14.41016,-0.32648 -14.41016,-0.60742 0,-0.28096 3.3987,-4.19177 7.55273,-8.69141 8.94081,-9.68471 10.65086,-11.98654 9.6211,-12.94726 -0.42226,-0.39394 -6.15557,-3.61471 -12.74024,-7.15821 -6.58467,-3.54351 -14.56592,-7.87017 -17.73632,-9.61328 l -5.76563,-3.16797 6.65234,-0.5957 c 3.65815,-0.32711 13.3426,-1.05499 21.52149,-1.61719 16.38447,-1.12624 23.4706,-2.75323 44.76758,-10.28515 l 11.75195,-4.15625 0.0156,-30.26758 c 0.008,-16.64692 0.41002,-34.01607 0.89257,-38.59766 2.17279,-20.62974 16.21177,-49.85605 33.54297,-69.83008 19.48292,-22.45382 47.82828,-39.008 75.95703,-44.35742 5.68921,-1.08197 16.27664,-1.6158 26.6875,-1.60742 z m 111.36524,229.73828 -13.9336,13.26172 c -16.77251,15.96365 -21.25303,19.85155 -28.28515,24.55274 -6.5048,4.34866 -9.36719,6.86007 -9.36719,8.21289 0,0.55742 3.09296,1.7385 6.87305,2.625 8.83938,2.07298 24.64826,7.51502 33.08203,11.38671 8.63555,3.96434 15.72057,9.41414 25.24609,19.42383 12.04976,12.66223 21.42113,26.13313 33.19727,47.7168 3.06038,5.60916 6.97789,12.76775 8.70508,15.91016 2.81639,5.12408 3.21574,5.51102 3.86718,3.75 2.89634,-7.82953 3.19251,-64.41997 0.40821,-77.95899 -1.76198,-8.5679 -3.54937,-12.36986 -11.86914,-25.25 -10.21471,-15.81375 -10.07907,-15.47384 -9.42774,-23.5332 l 0.55664,-6.875 -19.52539,-6.61133 z"
		/>
		<path class="operator" transform="matrix(1,0,0,1,0,2)"
			d="m 152.12426,53.390719 -18.75456,18.75455 -18.75454,-18.75455 -20.550007,20.55001 18.754547,18.75454 -18.754547,18.754551 20.550007,20.55 18.75454,-18.75454 18.75431,18.7543 20.55001,-20.55001 -18.75431,-18.754301 18.75455,-18.75454 z"
		/>
		<g transform="matrix(1,0,0,1,32.5,0)">
			<g class="point" transform="matrix(0.25569932,0,0,0.25569932,7.6796411,-2.6933194)">
				<path class="border"
					d="m 117.50781,10.533203 a 10.636495,10.636495 0 0 0 -9.9082,6.683594 L 75.117188,98.425781 16.957031,64.871094 A 10.636495,10.636495 0 0 0 1.3632812,76.810547 L 35.757812,206.45508 a 10.636495,10.636495 0 0 0 10.279297,7.9082 H 186.26758 a 10.636495,10.636495 0 0 0 10.33008,-8.10547 l 31.75,-129.644529 A 10.636495,10.636495 0 0 0 212.54492,64.964844 L 157.38281,98.0625 127.44531,17.462891 a 10.636495,10.636495 0 0 0 -9.9375,-6.929688 z"
				/>
				<path class="color"
					d="M 46.037497,203.72916 H 186.26667 l 31.75,-129.64583 -66.14583,39.6875 L 117.475,21.166663 80.433331,113.77083 11.641664,74.08333 Z"
				/>
			</g>
			<g class="point" transform="matrix(0.25569932,0,0,0.25569932,71.179641,-2.6933194)">
				<path class="border"
					d="m 117.50781,10.533203 a 10.636495,10.636495 0 0 0 -9.9082,6.683594 L 75.117188,98.425781 16.957031,64.871094 A 10.636495,10.636495 0 0 0 1.3632812,76.810547 L 35.757812,206.45508 a 10.636495,10.636495 0 0 0 10.279297,7.9082 H 186.26758 a 10.636495,10.636495 0 0 0 10.33008,-8.10547 l 31.75,-129.644529 A 10.636495,10.636495 0 0 0 212.54492,64.964844 L 157.38281,98.0625 127.44531,17.462891 a 10.636495,10.636495 0 0 0 -9.9375,-6.929688 z"
				/>
				<path class="color"
					d="M 46.037497,203.72916 H 186.26667 l 31.75,-129.64583 -66.14583,39.6875 L 117.475,21.166663 80.433331,113.77083 11.641664,74.08333 Z"
				/>
			</g>
			<g class="point" transform="matrix(0.25569932,0,0,0.25569932,134.67964,-2.6933194)">
				<path class="border"
					d="m 117.50781,10.533203 a 10.636495,10.636495 0 0 0 -9.9082,6.683594 L 75.117188,98.425781 16.957031,64.871094 A 10.636495,10.636495 0 0 0 1.3632812,76.810547 L 35.757812,206.45508 a 10.636495,10.636495 0 0 0 10.279297,7.9082 H 186.26758 a 10.636495,10.636495 0 0 0 10.33008,-8.10547 l 31.75,-129.644529 A 10.636495,10.636495 0 0 0 212.54492,64.964844 L 157.38281,98.0625 127.44531,17.462891 a 10.636495,10.636495 0 0 0 -9.9375,-6.929688 z"
				/>
				<path class="color"
					d="M 46.037497,203.72916 H 186.26667 l 31.75,-129.64583 -66.14583,39.6875 L 117.475,21.166663 80.433331,113.77083 11.641664,74.08333 Z"
				/>
			</g>
		</g>
	</g>
</svg>
