<?xml version="1.0" encoding="UTF-8" standalone="no"?>
<svg xmlns="http://www.w3.org/2000/svg" width="1000" height="1000" viewBox="0 0 264.58333 264.58334" version="1.1">
	<radialGradient id="Gradient" cx="0.5" cy="0.5" r="0.85" fx="0.35" fy="0.55">
		<stop offset="0%" stop-color="#99f" />
		<stop offset="25%" stop-color="#66a" />
		<stop offset="100%" stop-color="#339" />
	</radialGradient>
	<radialGradient id="GradientPoint" cx="0.5" cy="0.5" r="0.85" fx="0.35" fy="0.55">
		<stop offset="0%" stop-color="#E9C069" />
		<stop offset="25%" stop-color="#B99039" />
		<stop offset="100%" stop-color="#6A4D1D" />
	</radialGradient>
	<style type="text/css">
		.category { fill: url(#Gradient); }
		.operator { fill: #000; }
		.point .border { fill: #000; }
		.point .color { fill: url(#GradientPoint); }
	</style>
	<g>

		<path class="category" transform="matrix(1,0,0,1,65,135), scale(0.131)"
			d="m 626.16133,994.55172 c -5.20125,-1.22202 -22.22354,-5.12269 -37.8273,-8.66818 -26.57486,-6.03831 -132.63737,-30.8652 -233.26834,-54.60295 -28.05105,-6.61694 -47.57772,-10.4267 -53.58867,-10.45547 -7.68665,-0.0367 -24.5033,4.42487 -89.83984,23.83553 -65.50839,19.46174 -108.52215,31.85538 -110.6499,31.8818 -0.41881,0.005 -0.41362,0.0167 -42.756995,-94.9521 l -36.36435,-81.5589 53.798386,-76.84292 c 58.908539,-84.142 81.216679,-117.33802 82.625969,-122.95307 0.53754,-2.14177 -0.0268,-4.78524 -1.35792,-6.35991 -1.2528,-1.4821 -18.77014,-23.43771 -38.92743,-48.79025 L 81.355327,498.98979 42.07715,381.17883 C 20.474153,316.38279 2.7989728,262.46134 2.7989728,261.35336 c 0,-1.10798 32.7636642,-38.34955 72.8081432,-82.75904 C 163.34252,81.295406 175.86701,67.699517 180.6772,64.536109 c 3.42839,-2.25468 9.02223,-1.690089 72.50232,7.317734 l 68.78729,9.760917 98.46693,-29.807349 98.46693,-29.807347 100.04295,49.463337 c 85.74745,42.395349 100.54522,49.234479 103.55804,47.861749 1.93331,-0.88087 36.7247,-23.528622 77.31418,-50.328334 75.36883,-49.763198 96.49285,-63.3510631 98.48709,-63.3510631 0.62011,0 3.01045,6.1732911 5.31187,13.7184251 9.3168,30.545029 73.4785,255.236092 73.72042,258.165282 0.1543,1.86872 -21.29474,33.95755 -52.67675,78.80687 -82.40972,117.77511 -85.15109,121.92833 -83.09346,125.88738 2.1312,4.10062 12.72409,17.64834 87.6577,112.10938 32.32054,40.74315 60.63186,76.76803 62.91405,80.05528 4.12444,5.94086 4.13269,6.01197 1.37193,11.82103 -2.81794,5.92938 -63.20957,110.50598 -109.32048,189.3038 l -25.27006,43.18336 -64.36587,23.44248 c -120.83195,44.00781 -151.716,54.89717 -155.32505,54.76586 -1.98499,-0.0722 -7.86464,-1.13115 -13.0659,-2.35318 z M 515.98611,845.10496 c 0.46394,-1.20903 -0.549,-13.44379 -2.25096,-27.18837 -2.99031,-24.14903 -2.998,-25.0749 -0.22845,-27.50701 1.57633,-1.38426 14.12081,-6.80294 27.87663,-12.04151 l 25.01059,-9.52468 37.76439,8.51087 c 55.91731,12.60195 82.16778,17.93635 88.26441,17.93635 4.63413,0 9.9502,-3.55364 35.78836,-23.92346 39.40044,-31.06178 54.23167,-43.01335 61.40749,-49.48448 l 5.8435,-5.26964 -21.02577,-35.36488 -21.02578,-35.36489 -3.36233,-54.93362 c -3.47149,-56.717 -4.53256,-68.32084 -6.24954,-68.3448 -3.58601,-0.05 -35.13168,-6.00676 -35.9048,-6.77988 -1.15281,-1.15281 7.76646,-12.64955 41.19489,-53.09935 l 25.39969,-30.73468 21.629,-57.408 c 11.89596,-31.5744 21.07808,-57.88691 20.40471,-58.47222 -0.67338,-0.58533 -42.00687,-18.21843 -91.85222,-39.18466 -49.84534,-20.96623 -92.75569,-39.66673 -95.35631,-41.55664 -2.60063,-1.88993 -29.06883,-23.14339 -58.81824,-47.22991 -29.7494,-24.08651 -54.26255,-43.79365 -54.47367,-43.79365 -0.21112,0 -11.60575,3.19168 -25.32139,7.09262 -13.71563,3.90094 -25.13511,7.09262 -25.3766,7.09262 -0.24148,0 -16.7182,18.97275 -36.6149,42.16167 -19.89671,23.18892 -38.99276,45.31353 -42.43568,49.1658 l -6.25985,7.0041 -9.63902,-3.51457 c -5.30148,-1.93302 -19.67792,-7.96967 -31.94765,-13.4148 l -22.3086,-9.90023 -18.08917,3.51952 c -9.94905,1.93573 -18.459,3.88932 -18.911,4.34133 -0.45201,0.45199 0.67618,14.16511 2.50705,30.47358 1.83087,16.30846 3.32297,30.38646 3.31577,31.28442 -0.009,1.11143 -6.35433,1.02185 -19.87533,-0.28054 -41.06023,-3.95506 -149.03899,-11.86786 -149.92052,-10.98632 -0.76751,0.7675 5.46753,72.19261 6.35714,72.8239 0.16247,0.11521 28.62933,15.93364 63.25968,35.1519 34.63036,19.21825 63.17313,35.15113 63.4284,35.4064 1.18521,1.1852 4.07638,21.60198 13.19116,93.15278 l 9.8303,77.1677 -4.79327,14.24827 c -2.63631,7.83654 -14.80876,43.24016 -27.04989,78.67473 -12.24113,35.43456 -22.42448,66.56569 -22.62968,69.18026 l -0.37305,4.75381 108.75348,39.07066 108.75348,39.07067 40.635,0.10844 c 33.37534,0.0892 40.78571,-0.28421 41.47855,-2.08968 z"
		/>
		<path class="operator" transform="matrix(1,0,0,1,0,2)"
			d="m 152.12426,53.390719 -18.75456,18.75455 -18.75454,-18.75455 -20.550007,20.55001 18.754547,18.75454 -18.754547,18.754551 20.550007,20.55 18.75454,-18.75454 18.75431,18.7543 20.55001,-20.55001 -18.75431,-18.754301 18.75455,-18.75454 z"
		/>
		<g class="point" transform="matrix(0.25569932,0,0,0.25569932,71.179641,-2.6933194)">
			<path class="border"
				d="m 117.50781,10.533203 a 10.636495,10.636495 0 0 0 -9.9082,6.683594 L 75.117188,98.425781 16.957031,64.871094 A 10.636495,10.636495 0 0 0 1.3632812,76.810547 L 35.757812,206.45508 a 10.636495,10.636495 0 0 0 10.279297,7.9082 H 186.26758 a 10.636495,10.636495 0 0 0 10.33008,-8.10547 l 31.75,-129.644529 A 10.636495,10.636495 0 0 0 212.54492,64.964844 L 157.38281,98.0625 127.44531,17.462891 a 10.636495,10.636495 0 0 0 -9.9375,-6.929688 z"
			/>
			<path class="color"
				d="M 46.037497,203.72916 H 186.26667 l 31.75,-129.64583 -66.14583,39.6875 L 117.475,21.166663 80.433331,113.77083 11.641664,74.08333 Z"
			/>
		</g>
		<g class="point" transform="matrix(0.25569932,0,0,0.25569932,134.67964,-2.6933194)">
			<path class="border"
				d="m 117.50781,10.533203 a 10.636495,10.636495 0 0 0 -9.9082,6.683594 L 75.117188,98.425781 16.957031,64.871094 A 10.636495,10.636495 0 0 0 1.3632812,76.810547 L 35.757812,206.45508 a 10.636495,10.636495 0 0 0 10.279297,7.9082 H 186.26758 a 10.636495,10.636495 0 0 0 10.33008,-8.10547 l 31.75,-129.644529 A 10.636495,10.636495 0 0 0 212.54492,64.964844 L 157.38281,98.0625 127.44531,17.462891 a 10.636495,10.636495 0 0 0 -9.9375,-6.929688 z"
			/>
			<path class="color"
				d="M 46.037497,203.72916 H 186.26667 l 31.75,-129.64583 -66.14583,39.6875 L 117.475,21.166663 80.433331,113.77083 11.641664,74.08333 Z"
			/>
		</g>
	</g>
</svg>
