<?xml version="1.0" encoding="UTF-8" standalone="no"?>
<svg
   xmlns:dc="http://purl.org/dc/elements/1.1/"
   xmlns:cc="http://creativecommons.org/ns#"
   xmlns:rdf="http://www.w3.org/1999/02/22-rdf-syntax-ns#"
   xmlns:svg="http://www.w3.org/2000/svg"
   xmlns="http://www.w3.org/2000/svg"
   xmlns:xlink="http://www.w3.org/1999/xlink"
   xmlns:sodipodi="http://sodipodi.sourceforge.net/DTD/sodipodi-0.dtd"
   xmlns:inkscape="http://www.inkscape.org/namespaces/inkscape"
   sodipodi:docname="3-points-by-S19.svg"
   inkscape:version="1.0 (4035a4fb49, 2020-05-01)"
   id="svg2206"
   version="1.1"
   viewBox="0 0 264.58333 264.58334"
   height="1000"
   width="1000">
  <defs
     id="defs2200">
    <rect
       x="31.75"
       y="71.4375"
       width="148.16667"
       height="13.229167"
       id="rect836" />
    <radialGradient
       id="Gradient"
       cx="0.5"
       cy="0.5"
       r="0.85000002"
       fx="0.34999999"
       fy="0.55000001">
      <stop
         offset="0%"
         stop-color="#ccc"
         id="stop2" />
      <stop
         offset="25%"
         stop-color="#aaa"
         id="stop4" />
      <stop
         offset="100%"
         stop-color="#333"
         id="stop6" />
    </radialGradient>
  </defs>
  <sodipodi:namedview
     inkscape:window-maximized="1"
     inkscape:window-y="-8"
     inkscape:window-x="1272"
     inkscape:window-height="1418"
     inkscape:window-width="2560"
     showgrid="true"
     inkscape:document-rotation="0"
     inkscape:current-layer="layer1"
     inkscape:document-units="px"
     inkscape:cy="440.60403"
     inkscape:cx="717.6149"
     inkscape:zoom="0.91100744"
     inkscape:pageshadow="2"
     inkscape:pageopacity="0.0"
     borderopacity="1.0"
     bordercolor="#666666"
     pagecolor="#ffffff"
     id="base"
     units="px">
    <inkscape:grid
       id="grid17"
       type="xygrid" />
  </sodipodi:namedview>
  <metadata
     id="metadata2203">
    <rdf:RDF>
      <cc:Work
         rdf:about="">
        <dc:format>image/svg+xml</dc:format>
        <dc:type
           rdf:resource="http://purl.org/dc/dcmitype/StillImage" />
        <dc:title></dc:title>
      </cc:Work>
    </rdf:RDF>
  </metadata>
  <g
     style="display:inline"
     inkscape:label="Pleins"
     id="layer1"
     inkscape:groupmode="layer">
    <path
       inkscape:label="category"
       style="stroke-width:0.144986"
       d="m 173.59451,122.00311 -25.97715,19.63486 c -21.30458,16.10321 -25.9645,19.68642 -25.90777,19.92114 0.038,0.15742 4.4178,9.73066 9.73276,21.27388 l 9.66339,20.98758 -6.50909,22.73082 c -3.58012,12.50184 -6.45773,22.74955 -6.39439,22.77273 0.0633,0.0232 10.59224,3.41479 23.39741,7.53701 12.80517,4.12221 23.35995,7.5003 23.45518,7.50671 0.0952,0.006 5.67137,-6.81507 12.39122,-15.15869 l 12.2179,-15.1703 8.09459,9.80015 c 4.45208,5.39005 8.17752,9.85008 8.27865,9.91116 0.35155,0.21229 48.68561,9.15831 48.62216,8.99933 -0.0349,-0.0874 -3.32826,-9.95806 -7.31839,-21.93481 l -7.25469,-21.77595 6.51814,-30.34683 6.51787,-30.34683 -13.74197,-18.06974 c -7.55811,-9.93836 -13.78882,-18.11421 -13.84589,-18.16829 -0.0571,-0.0541 -9.88906,2.50634 -21.849,5.68957 -11.95996,3.18323 -22.21109,5.91068 -22.7801,6.0611 l -1.03444,0.27355 -8.13819,-6.06422 z m 60.89756,13.93368 c 3.30905,-0.0135 6.0936,2.2541 6.77697,5.99993 0.15793,0.86564 0.23192,2.26689 0.23192,4.39432 0,6.82741 -1.54136,84.26937 -1.70302,85.5636 -0.35748,2.86203 -1.35606,5.67341 -2.84535,8.01076 -0.54807,0.86016 -1.36086,1.76335 -2.98185,3.31316 l -2.22831,2.13033 -0.99876,-0.65923 c -3.46829,-2.28894 -5.29509,-5.26227 -6.08234,-9.89955 -0.40087,-2.36135 -0.26636,-6.01804 1.23493,-33.51954 0.36736,-6.72947 0.63684,-12.26523 0.59892,-12.30173 -0.038,-0.0364 -1.5699,1.32787 -3.40434,3.03197 -3.64163,3.3829 -4.15264,3.81254 -6.35503,5.34155 -6.03946,4.19286 -12.63267,6.08961 -19.22425,5.53014 -6.34671,-0.53868 -11.66817,-2.85654 -15.87966,-6.91657 -4.54586,-4.38236 -6.89077,-9.84045 -6.87722,-16.00794 0.006,-2.66255 0.23351,-4.20771 1.04407,-7.08364 1.45266,-5.15412 3.36516,-8.89443 6.62717,-12.96153 6.59097,-8.21765 14.8022,-14.2079 25.06702,-18.28666 8.75196,-3.47761 13.90705,-3.86533 18.13402,-1.36377 l 0.80026,0.47347 1.72766,-1.7169 c 1.48685,-1.47736 1.89303,-1.79378 2.91161,-2.26852 1.16115,-0.54119 2.32257,-0.79915 3.42558,-0.80365 z m -75.91834,4.29238 c 1.63234,-0.0272 3.57784,0.56856 4.85731,1.52603 1.41955,1.06229 2.15078,2.57782 2.57832,5.34382 0.23573,1.52507 0.26647,3.08576 0.26647,13.52986 0,6.49335 -0.0955,20.85385 -0.21238,31.91223 -0.14305,13.53193 -0.16835,22.39902 -0.077,27.11834 0.19689,10.17403 0.10345,12.7701 -0.57258,15.88052 -0.79786,3.67096 -2.27643,6.12692 -4.3088,7.15698 -0.67679,0.34302 -1.03224,0.42163 -2.0502,0.45478 -0.67723,0.0221 -1.40421,-0.0127 -1.61552,-0.0773 -3.63457,-1.1116 -5.83486,-5.34167 -6.44961,-12.3997 -0.15676,-1.79977 -0.0122,-23.89158 0.30752,-47.00608 0.0931,-6.72946 0.14742,-13.51877 0.12064,-15.08733 l -0.0487,-2.85186 -1.84405,1.61778 c -2.36075,2.0709 -3.44057,2.81531 -4.49825,3.10163 -1.62016,0.43858 -3.15071,-0.06 -3.75576,-1.22389 -0.44016,-0.8467 -0.42569,-2.38221 0.0359,-3.80192 0.3267,-1.00472 10.16834,-19.47706 11.50261,-21.5899 1.40025,-2.21733 2.87567,-3.24771 5.08668,-3.55329 0.21756,-0.0301 0.44417,-0.0468 0.67736,-0.0507 z m 67.00255,10.84111 c -0.46699,0.043 -6.72141,1.90179 -8.58675,2.55708 -5.81085,2.04132 -11.14958,4.82543 -15.21419,7.93402 -3.97744,3.04191 -8.20876,7.96072 -9.7506,11.33468 -1.16691,2.55353 -1.6384,5.2243 -1.38898,7.87059 0.36915,3.91661 2.73156,6.73279 6.45245,7.69191 1.17653,0.30327 3.45455,0.20942 4.76387,-0.19624 1.69882,-0.52633 5.22915,-2.24298 6.61442,-3.21631 1.40785,-0.9892 3.64298,-3.07895 5.14927,-4.81456 4.7232,-5.44227 7.97222,-11.96816 10.18867,-20.46427 0.86251,-3.3062 1.9485,-8.55574 1.79874,-8.6952 -0.003,-0.003 -0.0118,-0.003 -0.0269,-0.002 z"
       id="path11" />
    <path
       inkscape:label="by"
       id="path2041"
       d="M 45.508338,195.26251 188.38333,39.158335 209.55,57.679168 66.675005,213.78335 Z"
       style="fill:#000000;fill-rule:evenodd;stroke:none;stroke-width:0.264583px;stroke-linecap:butt;stroke-linejoin:miter;stroke-opacity:1" />
    <g
       inkscape:label="point"
       transform="matrix(0.32094051,0,0,0.32094051,1.1003545,-2.1038991)"
       id="g2070">
      <path
         inkscape:label="path47"
         d="m 117.50781,10.533203 a 10.636495,10.636495 0 0 0 -9.9082,6.683594 L 75.117188,98.425781 16.957031,64.871094 A 10.636495,10.636495 0 0 0 1.3632812,76.810547 L 35.757812,206.45508 a 10.636495,10.636495 0 0 0 10.279297,7.9082 H 186.26758 a 10.636495,10.636495 0 0 0 10.33008,-8.10547 l 31.75,-129.644529 A 10.636495,10.636495 0 0 0 212.54492,64.964844 L 157.38281,98.0625 127.44531,17.462891 a 10.636495,10.636495 0 0 0 -9.9375,-6.929688 z"
         id="path47"
         xlink:href="#path26"
         inkscape:original="M 117.47461 21.166016 L 80.433594 113.77148 L 11.642578 74.083984 L 46.037109 203.72852 L 186.26758 203.72852 L 218.01758 74.083984 L 151.87109 113.77148 L 117.47461 21.166016 z "
         inkscape:radius="10.635431"
         sodipodi:type="inkscape:offset"
         style="display:inline;fill:#000000;fill-rule:evenodd;stroke:none;stroke-width:0.264583px;stroke-linecap:butt;stroke-linejoin:miter;stroke-opacity:1" />
      <path
         sodipodi:nodetypes="cccccccc"
         id="path15"
         d="M 46.037497,203.72916 H 186.26667 l 31.75,-129.64583 -66.14583,39.6875 L 117.475,21.166663 80.433331,113.77083 11.641664,74.08333 Z"
         style="fill:#ffcc00;fill-rule:evenodd;stroke:none;stroke-width:0.264583px;stroke-linecap:butt;stroke-linejoin:miter;stroke-opacity:1" />
    </g>
    <g
       id="g2090"
       transform="matrix(0.32094051,0,0,0.32094051,79.797429,-1.8122713)"
       inkscape:label="point">
      <path
         style="display:inline;fill:#000000;fill-rule:evenodd;stroke:none;stroke-width:0.264583px;stroke-linecap:butt;stroke-linejoin:miter;stroke-opacity:1"
         sodipodi:type="inkscape:offset"
         inkscape:radius="10.635431"
         inkscape:original="M 117.47461 21.166016 L 80.433594 113.77148 L 11.642578 74.083984 L 46.037109 203.72852 L 186.26758 203.72852 L 218.01758 74.083984 L 151.87109 113.77148 L 117.47461 21.166016 z "
         xlink:href="#path26"
         id="path2074"
         d="m 117.50781,10.533203 a 10.636495,10.636495 0 0 0 -9.9082,6.683594 L 75.117188,98.425781 16.957031,64.871094 A 10.636495,10.636495 0 0 0 1.3632812,76.810547 L 35.757812,206.45508 a 10.636495,10.636495 0 0 0 10.279297,7.9082 H 186.26758 a 10.636495,10.636495 0 0 0 10.33008,-8.10547 l 31.75,-129.644529 A 10.636495,10.636495 0 0 0 212.54492,64.964844 L 157.38281,98.0625 127.44531,17.462891 a 10.636495,10.636495 0 0 0 -9.9375,-6.929688 z" />
      <path
         style="display:inline;fill:#ffcc00;fill-rule:evenodd;stroke:none;stroke-width:0.264583px;stroke-linecap:butt;stroke-linejoin:miter;stroke-opacity:1"
         d="M 46.037497,203.72916 H 186.26667 l 31.75,-129.64583 -66.14583,39.6875 L 117.475,21.166663 80.433331,113.77083 11.641664,74.08333 Z"
         id="path2084"
         sodipodi:nodetypes="cccccccc" />
    </g>
    <g
       inkscape:label="point"
       transform="matrix(0.32094051,0,0,0.32094051,40.310122,57.030853)"
       id="g2110">
      <path
         d="m 117.50781,10.533203 a 10.636495,10.636495 0 0 0 -9.9082,6.683594 L 75.117188,98.425781 16.957031,64.871094 A 10.636495,10.636495 0 0 0 1.3632812,76.810547 L 35.757812,206.45508 a 10.636495,10.636495 0 0 0 10.279297,7.9082 H 186.26758 a 10.636495,10.636495 0 0 0 10.33008,-8.10547 l 31.75,-129.644529 A 10.636495,10.636495 0 0 0 212.54492,64.964844 L 157.38281,98.0625 127.44531,17.462891 a 10.636495,10.636495 0 0 0 -9.9375,-6.929688 z"
         id="path2094"
         xlink:href="#path26"
         inkscape:original="M 117.47461 21.166016 L 80.433594 113.77148 L 11.642578 74.083984 L 46.037109 203.72852 L 186.26758 203.72852 L 218.01758 74.083984 L 151.87109 113.77148 L 117.47461 21.166016 z "
         inkscape:radius="10.635431"
         sodipodi:type="inkscape:offset"
         style="display:inline;fill:#000000;fill-rule:evenodd;stroke:none;stroke-width:0.264583px;stroke-linecap:butt;stroke-linejoin:miter;stroke-opacity:1" />
      <path
         style="display:inline;fill:#ffcc00;fill-rule:evenodd;stroke:none;stroke-width:0.264583px;stroke-linecap:butt;stroke-linejoin:miter;stroke-opacity:1"
         d="M 46.037497,203.72916 H 186.26667 l 31.75,-129.64583 -66.14583,39.6875 L 117.475,21.166663 80.433331,113.77083 11.641664,74.08333 Z"
         id="path2106"
         sodipodi:nodetypes="cccccccc" />
    </g>
  </g>
</svg>
