<?xml version="1.0" encoding="UTF-8" standalone="no"?>
<svg xmlns="http://www.w3.org/2000/svg" version="1.1" viewBox="0 0 384 512">
  <path
     id="path2"
     d="M0 352a160 160 0 0 0 160 160h64a160 160 0 0 0 160-160V224H0zM176 0h-16A160 160 0 0 0 0 160v32h176zm48 0h-16v192h176v-32A160 160 0 0 0 224 0z" />
  <path
     id="path12"
     d="M 208.23881,96.076399 V 0.1527984 L 224,0.50536317 c 21.16715,0.47349155 32.99515,2.32761273 49.59636,7.77457473 56.13487,18.4182051 98.00084,67.0482531 107.81942,125.2392721 1.63008,9.66082 2.55602,25.61299 2.57206,44.31164 L 384,192 h -87.8806 -87.88059 z"
     style="fill:#4b4bff;stroke-width:0.636816;fill-opacity:1" />
</svg>
